[10/Mar/2019 04:29:02] INFO [salattax_app.subscribe_payumoney:1674] Start send_marketing_mail for tax_leakage_report: Sun Mar 10 04:29:02 2019
[10/Mar/2019 04:29:02] INFO [salattax_app.subscribe_payumoney:1584] EGRPK2447C screenshot exist
[10/Mar/2019 04:29:02] INFO [salattax_app.subscribe_payumoney:1739] Error sending mail: unsupported locale setting
[10/Mar/2019 04:29:02] INFO [salattax_app.subscribe_payumoney:1584] ANRPB0497J screenshot exist
[10/Mar/2019 04:29:02] INFO [salattax_app.subscribe_payumoney:1739] Error sending mail: unsupported locale setting
[10/Mar/2019 04:29:02] INFO [salattax_app.subscribe_payumoney:1584] AMOPK2275R screenshot exist
[10/Mar/2019 04:29:02] INFO [salattax_app.subscribe_payumoney:1739] Error sending mail: int() argument must be a string or a number, not 'NoneType'
[10/Mar/2019 04:29:02] INFO [salattax_app.subscribe_payumoney:1584] ACDPL0065F screenshot exist
[10/Mar/2019 04:29:02] INFO [salattax_app.subscribe_payumoney:1739] Error sending mail: invalid literal for int() with base 10: ''
[10/Mar/2019 04:29:02] INFO [salattax_app.subscribe_payumoney:1584] ANRPB0497J screenshot exist
[10/Mar/2019 04:29:02] INFO [salattax_app.subscribe_payumoney:1739] Error sending mail: unsupported locale setting
[10/Mar/2019 04:29:02] INFO [salattax_app.subscribe_payumoney:1584] ACDPL0065F screenshot exist
[10/Mar/2019 04:29:02] INFO [salattax_app.subscribe_payumoney:1739] Error sending mail: unsupported locale setting
[10/Mar/2019 04:29:02] INFO [salattax_app.subscribe_payumoney:1584] AKSPM5263B screenshot exist
[10/Mar/2019 04:29:02] INFO [salattax_app.subscribe_payumoney:1739] Error sending mail: invalid literal for int() with base 10: ''
[10/Mar/2019 04:29:02] INFO [salattax_app.subscribe_payumoney:1584] ANRPB0497J screenshot exist
[10/Mar/2019 04:29:02] INFO [salattax_app.subscribe_payumoney:1739] Error sending mail: invalid literal for int() with base 10: ''
[10/Mar/2019 04:29:02] INFO [salattax_app.subscribe_payumoney:1584] ANRPB0497J screenshot exist
[10/Mar/2019 04:29:02] INFO [salattax_app.subscribe_payumoney:1739] Error sending mail: invalid literal for int() with base 10: ''
[10/Mar/2019 04:29:02] INFO [salattax_app.subscribe_payumoney:1584] ACDPL0065F screenshot exist
[10/Mar/2019 04:29:02] INFO [salattax_app.subscribe_payumoney:1739] Error sending mail: unsupported locale setting
[10/Mar/2019 04:29:02] INFO [salattax_app.subscribe_payumoney:1584] BKPPM8283B screenshot exist
[10/Mar/2019 04:29:02] INFO [salattax_app.subscribe_payumoney:1739] Error sending mail: invalid literal for int() with base 10: ''
[10/Mar/2019 04:29:02] INFO [salattax_app.subscribe_payumoney:1584] BKPPM8283B screenshot exist
[10/Mar/2019 04:29:02] INFO [salattax_app.subscribe_payumoney:1739] Error sending mail: invalid literal for int() with base 10: ''
[10/Mar/2019 04:29:02] INFO [salattax_app.subscribe_payumoney:1584] ANRPB0497J screenshot exist
[10/Mar/2019 04:29:02] INFO [salattax_app.subscribe_payumoney:1739] Error sending mail: unsupported locale setting
[10/Mar/2019 04:29:02] INFO [salattax_app.subscribe_payumoney:1584] ACAPK1080G screenshot exist
[10/Mar/2019 04:29:02] INFO [salattax_app.subscribe_payumoney:1739] Error sending mail: invalid literal for int() with base 10: ''
[10/Mar/2019 04:29:02] INFO [salattax_app.subscribe_payumoney:1584] ACAPK1080G screenshot exist
[10/Mar/2019 04:29:02] INFO [salattax_app.subscribe_payumoney:1739] Error sending mail: invalid literal for int() with base 10: ''
[10/Mar/2019 04:29:02] INFO [salattax_app.subscribe_payumoney:1584] BKPPM8283B screenshot exist
[10/Mar/2019 04:29:02] INFO [salattax_app.subscribe_payumoney:1739] Error sending mail: unsupported locale setting
[10/Mar/2019 04:29:02] INFO [salattax_app.subscribe_payumoney:1584] ANRPB0497J screenshot exist
[10/Mar/2019 04:29:02] INFO [salattax_app.subscribe_payumoney:1739] Error sending mail: invalid literal for int() with base 10: ''
[10/Mar/2019 04:29:02] INFO [salattax_app.subscribe_payumoney:1584] BVTPM4785R screenshot exist
[10/Mar/2019 04:29:02] INFO [salattax_app.subscribe_payumoney:1739] Error sending mail: invalid literal for int() with base 10: ''
[10/Mar/2019 04:29:02] INFO [salattax_app.subscribe_payumoney:1584] ASGPR9583F screenshot exist
[10/Mar/2019 04:29:02] INFO [salattax_app.subscribe_payumoney:1739] Error sending mail: unsupported locale setting
[10/Mar/2019 04:29:02] INFO [salattax_app.subscribe_payumoney:1584] AMOPK2275R screenshot exist
[10/Mar/2019 04:29:02] INFO [salattax_app.subscribe_payumoney:1739] Error sending mail: unsupported locale setting
[10/Mar/2019 04:29:02] INFO [salattax_app.subscribe_payumoney:1584] BJPPB7295F screenshot exist
[10/Mar/2019 04:29:02] INFO [salattax_app.subscribe_payumoney:1739] Error sending mail: invalid literal for int() with base 10: ''
[10/Mar/2019 04:29:02] INFO [salattax_app.subscribe_payumoney:1584] BUDPB7691G screenshot exist
[10/Mar/2019 04:29:02] INFO [salattax_app.subscribe_payumoney:1739] Error sending mail: invalid literal for int() with base 10: ''
[10/Mar/2019 04:29:02] INFO [salattax_app.subscribe_payumoney:1584] AIGPR5746N screenshot exist
[10/Mar/2019 04:29:02] INFO [salattax_app.subscribe_payumoney:1739] Error sending mail: unsupported locale setting
[10/Mar/2019 04:29:02] INFO [salattax_app.subscribe_payumoney:1584] AFKPA4042H screenshot exist
[10/Mar/2019 04:29:02] INFO [salattax_app.subscribe_payumoney:1739] Error sending mail: unsupported locale setting
[10/Mar/2019 04:29:02] INFO [salattax_app.subscribe_payumoney:1584] AHLPL1070H screenshot exist
[10/Mar/2019 04:29:02] INFO [salattax_app.subscribe_payumoney:1739] Error sending mail: invalid literal for int() with base 10: ''
[10/Mar/2019 04:29:02] INFO [salattax_app.subscribe_payumoney:1584] ANRPB0497J screenshot exist
[10/Mar/2019 04:29:02] INFO [salattax_app.subscribe_payumoney:1739] Error sending mail: int() argument must be a string or a number, not 'NoneType'
[10/Mar/2019 04:29:02] INFO [salattax_app.subscribe_payumoney:1584] DLOPS2352R screenshot exist
[10/Mar/2019 04:29:02] INFO [salattax_app.subscribe_payumoney:1739] Error sending mail: invalid literal for int() with base 10: ''
[10/Mar/2019 04:29:02] INFO [salattax_app.subscribe_payumoney:1584] ABAPW4263E screenshot exist
[10/Mar/2019 04:29:02] INFO [salattax_app.subscribe_payumoney:1739] Error sending mail: invalid literal for int() with base 10: ''
[10/Mar/2019 04:29:02] INFO [salattax_app.subscribe_payumoney:1584] AJRPD4193K screenshot exist
[10/Mar/2019 04:29:02] INFO [salattax_app.subscribe_payumoney:1739] Error sending mail: invalid literal for int() with base 10: ''
[10/Mar/2019 04:29:02] INFO [salattax_app.subscribe_payumoney:1584] ANRPB0497J screenshot exist
[10/Mar/2019 04:29:02] INFO [salattax_app.subscribe_payumoney:1739] Error sending mail: invalid literal for int() with base 10: ''
[10/Mar/2019 04:29:02] INFO [salattax_app.subscribe_payumoney:1584] ABBHS1003B screenshot exist
[10/Mar/2019 04:29:02] INFO [salattax_app.subscribe_payumoney:1739] Error sending mail: invalid literal for int() with base 10: ''
[10/Mar/2019 04:29:02] INFO [salattax_app.subscribe_payumoney:1584] AVPPD7717F screenshot exist
[10/Mar/2019 04:29:02] INFO [salattax_app.subscribe_payumoney:1739] Error sending mail: unsupported locale setting
[10/Mar/2019 04:29:02] INFO [salattax_app.subscribe_payumoney:1584] AKSPM5263B screenshot exist
[10/Mar/2019 04:29:02] INFO [salattax_app.subscribe_payumoney:1739] Error sending mail: unsupported locale setting
[10/Mar/2019 04:29:02] INFO [salattax_app.subscribe_payumoney:1584] APRPG5173L screenshot exist
[10/Mar/2019 04:29:02] INFO [salattax_app.subscribe_payumoney:1739] Error sending mail: unsupported locale setting
[10/Mar/2019 06:30:01] INFO [salattax_app.subscribe_payumoney:1674] Start send_marketing_mail for tax_leakage_report: Sun Mar 10 06:30:01 2019
[10/Mar/2019 06:30:01] INFO [salattax_app.subscribe_payumoney:1584] EGRPK2447C screenshot exist
[10/Mar/2019 06:30:01] INFO [salattax_app.subscribe_payumoney:1739] Error sending mail: unsupported locale setting
[10/Mar/2019 06:30:01] INFO [salattax_app.subscribe_payumoney:1584] ANRPB0497J screenshot exist
[10/Mar/2019 06:30:01] INFO [salattax_app.subscribe_payumoney:1739] Error sending mail: unsupported locale setting
[10/Mar/2019 06:30:01] INFO [salattax_app.subscribe_payumoney:1584] AMOPK2275R screenshot exist
[10/Mar/2019 06:30:01] INFO [salattax_app.subscribe_payumoney:1739] Error sending mail: int() argument must be a string or a number, not 'NoneType'
[10/Mar/2019 06:30:02] INFO [salattax_app.subscribe_payumoney:1584] ACDPL0065F screenshot exist
[10/Mar/2019 06:30:02] INFO [salattax_app.subscribe_payumoney:1739] Error sending mail: invalid literal for int() with base 10: ''
[10/Mar/2019 06:30:02] INFO [salattax_app.subscribe_payumoney:1584] ANRPB0497J screenshot exist
[10/Mar/2019 06:30:02] INFO [salattax_app.subscribe_payumoney:1739] Error sending mail: unsupported locale setting
[10/Mar/2019 06:30:02] INFO [salattax_app.subscribe_payumoney:1584] ACDPL0065F screenshot exist
[10/Mar/2019 06:30:02] INFO [salattax_app.subscribe_payumoney:1739] Error sending mail: unsupported locale setting
[10/Mar/2019 06:30:02] INFO [salattax_app.subscribe_payumoney:1584] AKSPM5263B screenshot exist
[10/Mar/2019 06:30:02] INFO [salattax_app.subscribe_payumoney:1739] Error sending mail: invalid literal for int() with base 10: ''
[10/Mar/2019 06:30:02] INFO [salattax_app.subscribe_payumoney:1584] ANRPB0497J screenshot exist
[10/Mar/2019 06:30:02] INFO [salattax_app.subscribe_payumoney:1739] Error sending mail: invalid literal for int() with base 10: ''
[10/Mar/2019 06:30:02] INFO [salattax_app.subscribe_payumoney:1584] ANRPB0497J screenshot exist
[10/Mar/2019 06:30:02] INFO [salattax_app.subscribe_payumoney:1739] Error sending mail: invalid literal for int() with base 10: ''
[10/Mar/2019 06:30:02] INFO [salattax_app.subscribe_payumoney:1584] ACDPL0065F screenshot exist
[10/Mar/2019 06:30:02] INFO [salattax_app.subscribe_payumoney:1739] Error sending mail: unsupported locale setting
[10/Mar/2019 06:30:02] INFO [salattax_app.subscribe_payumoney:1584] BKPPM8283B screenshot exist
[10/Mar/2019 06:30:02] INFO [salattax_app.subscribe_payumoney:1739] Error sending mail: invalid literal for int() with base 10: ''
[10/Mar/2019 06:30:02] INFO [salattax_app.subscribe_payumoney:1584] BKPPM8283B screenshot exist
[10/Mar/2019 06:30:02] INFO [salattax_app.subscribe_payumoney:1739] Error sending mail: invalid literal for int() with base 10: ''
[10/Mar/2019 06:30:02] INFO [salattax_app.subscribe_payumoney:1584] ANRPB0497J screenshot exist
[10/Mar/2019 06:30:02] INFO [salattax_app.subscribe_payumoney:1739] Error sending mail: unsupported locale setting
[10/Mar/2019 06:30:02] INFO [salattax_app.subscribe_payumoney:1584] ACAPK1080G screenshot exist
[10/Mar/2019 06:30:02] INFO [salattax_app.subscribe_payumoney:1739] Error sending mail: invalid literal for int() with base 10: ''
[10/Mar/2019 06:30:02] INFO [salattax_app.subscribe_payumoney:1584] ACAPK1080G screenshot exist
[10/Mar/2019 06:30:02] INFO [salattax_app.subscribe_payumoney:1739] Error sending mail: invalid literal for int() with base 10: ''
[10/Mar/2019 06:30:02] INFO [salattax_app.subscribe_payumoney:1584] BKPPM8283B screenshot exist
[10/Mar/2019 06:30:02] INFO [salattax_app.subscribe_payumoney:1739] Error sending mail: unsupported locale setting
[10/Mar/2019 06:30:02] INFO [salattax_app.subscribe_payumoney:1584] ANRPB0497J screenshot exist
[10/Mar/2019 06:30:02] INFO [salattax_app.subscribe_payumoney:1739] Error sending mail: invalid literal for int() with base 10: ''
[10/Mar/2019 06:30:02] INFO [salattax_app.subscribe_payumoney:1584] BVTPM4785R screenshot exist
[10/Mar/2019 06:30:02] INFO [salattax_app.subscribe_payumoney:1739] Error sending mail: invalid literal for int() with base 10: ''
[10/Mar/2019 06:30:02] INFO [salattax_app.subscribe_payumoney:1584] ASGPR9583F screenshot exist
[10/Mar/2019 06:30:02] INFO [salattax_app.subscribe_payumoney:1739] Error sending mail: unsupported locale setting
[10/Mar/2019 06:30:02] INFO [salattax_app.subscribe_payumoney:1584] AMOPK2275R screenshot exist
[10/Mar/2019 06:30:02] INFO [salattax_app.subscribe_payumoney:1739] Error sending mail: unsupported locale setting
[10/Mar/2019 06:30:02] INFO [salattax_app.subscribe_payumoney:1584] BJPPB7295F screenshot exist
[10/Mar/2019 06:30:02] INFO [salattax_app.subscribe_payumoney:1739] Error sending mail: invalid literal for int() with base 10: ''
[10/Mar/2019 06:30:02] INFO [salattax_app.subscribe_payumoney:1584] BUDPB7691G screenshot exist
[10/Mar/2019 06:30:02] INFO [salattax_app.subscribe_payumoney:1739] Error sending mail: invalid literal for int() with base 10: ''
[10/Mar/2019 06:30:02] INFO [salattax_app.subscribe_payumoney:1584] AIGPR5746N screenshot exist
[10/Mar/2019 06:30:02] INFO [salattax_app.subscribe_payumoney:1739] Error sending mail: unsupported locale setting
[10/Mar/2019 06:30:02] INFO [salattax_app.subscribe_payumoney:1584] AFKPA4042H screenshot exist
[10/Mar/2019 06:30:02] INFO [salattax_app.subscribe_payumoney:1739] Error sending mail: unsupported locale setting
[10/Mar/2019 06:30:02] INFO [salattax_app.subscribe_payumoney:1584] AHLPL1070H screenshot exist
[10/Mar/2019 06:30:02] INFO [salattax_app.subscribe_payumoney:1739] Error sending mail: invalid literal for int() with base 10: ''
[10/Mar/2019 06:30:02] INFO [salattax_app.subscribe_payumoney:1584] ANRPB0497J screenshot exist
[10/Mar/2019 06:30:02] INFO [salattax_app.subscribe_payumoney:1739] Error sending mail: int() argument must be a string or a number, not 'NoneType'
[10/Mar/2019 06:30:02] INFO [salattax_app.subscribe_payumoney:1584] DLOPS2352R screenshot exist
[10/Mar/2019 06:30:02] INFO [salattax_app.subscribe_payumoney:1739] Error sending mail: invalid literal for int() with base 10: ''
[10/Mar/2019 06:30:02] INFO [salattax_app.subscribe_payumoney:1584] ABAPW4263E screenshot exist
[10/Mar/2019 06:30:02] INFO [salattax_app.subscribe_payumoney:1739] Error sending mail: invalid literal for int() with base 10: ''
[10/Mar/2019 06:30:02] INFO [salattax_app.subscribe_payumoney:1584] AJRPD4193K screenshot exist
[10/Mar/2019 06:30:02] INFO [salattax_app.subscribe_payumoney:1739] Error sending mail: invalid literal for int() with base 10: ''
[10/Mar/2019 06:30:02] INFO [salattax_app.subscribe_payumoney:1584] ANRPB0497J screenshot exist
[10/Mar/2019 06:30:02] INFO [salattax_app.subscribe_payumoney:1739] Error sending mail: invalid literal for int() with base 10: ''
[10/Mar/2019 06:30:02] INFO [salattax_app.subscribe_payumoney:1584] ABBHS1003B screenshot exist
[10/Mar/2019 06:30:02] INFO [salattax_app.subscribe_payumoney:1739] Error sending mail: invalid literal for int() with base 10: ''
[10/Mar/2019 06:30:02] INFO [salattax_app.subscribe_payumoney:1584] AVPPD7717F screenshot exist
[10/Mar/2019 06:30:02] INFO [salattax_app.subscribe_payumoney:1739] Error sending mail: unsupported locale setting
[10/Mar/2019 06:30:02] INFO [salattax_app.subscribe_payumoney:1584] AKSPM5263B screenshot exist
[10/Mar/2019 06:30:02] INFO [salattax_app.subscribe_payumoney:1739] Error sending mail: unsupported locale setting
[10/Mar/2019 06:30:02] INFO [salattax_app.subscribe_payumoney:1584] APRPG5173L screenshot exist
[10/Mar/2019 06:30:02] INFO [salattax_app.subscribe_payumoney:1739] Error sending mail: unsupported locale setting
[10/Mar/2019 08:29:02] INFO [salattax_app.subscribe_payumoney:1674] Start send_marketing_mail for tax_leakage_report: Sun Mar 10 08:29:02 2019
[10/Mar/2019 08:29:02] INFO [salattax_app.subscribe_payumoney:1584] EGRPK2447C screenshot exist
[10/Mar/2019 08:29:02] INFO [salattax_app.subscribe_payumoney:1739] Error sending mail: unsupported locale setting
[10/Mar/2019 08:29:02] INFO [salattax_app.subscribe_payumoney:1584] ANRPB0497J screenshot exist
[10/Mar/2019 08:29:02] INFO [salattax_app.subscribe_payumoney:1739] Error sending mail: unsupported locale setting
[10/Mar/2019 08:29:02] INFO [salattax_app.subscribe_payumoney:1584] AMOPK2275R screenshot exist
[10/Mar/2019 08:29:02] INFO [salattax_app.subscribe_payumoney:1739] Error sending mail: int() argument must be a string or a number, not 'NoneType'
[10/Mar/2019 08:29:02] INFO [salattax_app.subscribe_payumoney:1584] ACDPL0065F screenshot exist
[10/Mar/2019 08:29:02] INFO [salattax_app.subscribe_payumoney:1739] Error sending mail: invalid literal for int() with base 10: ''
[10/Mar/2019 08:29:02] INFO [salattax_app.subscribe_payumoney:1584] ANRPB0497J screenshot exist
[10/Mar/2019 08:29:02] INFO [salattax_app.subscribe_payumoney:1739] Error sending mail: unsupported locale setting
[10/Mar/2019 08:29:02] INFO [salattax_app.subscribe_payumoney:1584] ACDPL0065F screenshot exist
[10/Mar/2019 08:29:02] INFO [salattax_app.subscribe_payumoney:1739] Error sending mail: unsupported locale setting
[10/Mar/2019 08:29:02] INFO [salattax_app.subscribe_payumoney:1584] AKSPM5263B screenshot exist
[10/Mar/2019 08:29:02] INFO [salattax_app.subscribe_payumoney:1739] Error sending mail: invalid literal for int() with base 10: ''
[10/Mar/2019 08:29:02] INFO [salattax_app.subscribe_payumoney:1584] ANRPB0497J screenshot exist
[10/Mar/2019 08:29:02] INFO [salattax_app.subscribe_payumoney:1739] Error sending mail: invalid literal for int() with base 10: ''
[10/Mar/2019 08:29:02] INFO [salattax_app.subscribe_payumoney:1584] ANRPB0497J screenshot exist
[10/Mar/2019 08:29:02] INFO [salattax_app.subscribe_payumoney:1739] Error sending mail: invalid literal for int() with base 10: ''
[10/Mar/2019 08:29:02] INFO [salattax_app.subscribe_payumoney:1584] ACDPL0065F screenshot exist
[10/Mar/2019 08:29:02] INFO [salattax_app.subscribe_payumoney:1739] Error sending mail: unsupported locale setting
[10/Mar/2019 08:29:02] INFO [salattax_app.subscribe_payumoney:1584] BKPPM8283B screenshot exist
[10/Mar/2019 08:29:02] INFO [salattax_app.subscribe_payumoney:1739] Error sending mail: invalid literal for int() with base 10: ''
[10/Mar/2019 08:29:02] INFO [salattax_app.subscribe_payumoney:1584] BKPPM8283B screenshot exist
[10/Mar/2019 08:29:02] INFO [salattax_app.subscribe_payumoney:1739] Error sending mail: invalid literal for int() with base 10: ''
[10/Mar/2019 08:29:02] INFO [salattax_app.subscribe_payumoney:1584] ANRPB0497J screenshot exist
[10/Mar/2019 08:29:02] INFO [salattax_app.subscribe_payumoney:1739] Error sending mail: unsupported locale setting
[10/Mar/2019 08:29:02] INFO [salattax_app.subscribe_payumoney:1584] ACAPK1080G screenshot exist
[10/Mar/2019 08:29:02] INFO [salattax_app.subscribe_payumoney:1739] Error sending mail: invalid literal for int() with base 10: ''
[10/Mar/2019 08:29:02] INFO [salattax_app.subscribe_payumoney:1584] ACAPK1080G screenshot exist
[10/Mar/2019 08:29:02] INFO [salattax_app.subscribe_payumoney:1739] Error sending mail: invalid literal for int() with base 10: ''
[10/Mar/2019 08:29:02] INFO [salattax_app.subscribe_payumoney:1584] BKPPM8283B screenshot exist
[10/Mar/2019 08:29:02] INFO [salattax_app.subscribe_payumoney:1739] Error sending mail: unsupported locale setting
[10/Mar/2019 08:29:02] INFO [salattax_app.subscribe_payumoney:1584] ANRPB0497J screenshot exist
[10/Mar/2019 08:29:02] INFO [salattax_app.subscribe_payumoney:1739] Error sending mail: invalid literal for int() with base 10: ''
[10/Mar/2019 08:29:02] INFO [salattax_app.subscribe_payumoney:1584] BVTPM4785R screenshot exist
[10/Mar/2019 08:29:02] INFO [salattax_app.subscribe_payumoney:1739] Error sending mail: invalid literal for int() with base 10: ''
[10/Mar/2019 08:29:02] INFO [salattax_app.subscribe_payumoney:1584] ASGPR9583F screenshot exist
[10/Mar/2019 08:29:02] INFO [salattax_app.subscribe_payumoney:1739] Error sending mail: unsupported locale setting
[10/Mar/2019 08:29:02] INFO [salattax_app.subscribe_payumoney:1584] AMOPK2275R screenshot exist
[10/Mar/2019 08:29:02] INFO [salattax_app.subscribe_payumoney:1739] Error sending mail: unsupported locale setting
[10/Mar/2019 08:29:02] INFO [salattax_app.subscribe_payumoney:1584] BJPPB7295F screenshot exist
[10/Mar/2019 08:29:02] INFO [salattax_app.subscribe_payumoney:1739] Error sending mail: invalid literal for int() with base 10: ''
[10/Mar/2019 08:29:02] INFO [salattax_app.subscribe_payumoney:1584] BUDPB7691G screenshot exist
[10/Mar/2019 08:29:02] INFO [salattax_app.subscribe_payumoney:1739] Error sending mail: invalid literal for int() with base 10: ''
[10/Mar/2019 08:29:02] INFO [salattax_app.subscribe_payumoney:1584] AIGPR5746N screenshot exist
[10/Mar/2019 08:29:02] INFO [salattax_app.subscribe_payumoney:1739] Error sending mail: unsupported locale setting
[10/Mar/2019 08:29:02] INFO [salattax_app.subscribe_payumoney:1584] AFKPA4042H screenshot exist
[10/Mar/2019 08:29:02] INFO [salattax_app.subscribe_payumoney:1739] Error sending mail: unsupported locale setting
[10/Mar/2019 08:29:02] INFO [salattax_app.subscribe_payumoney:1584] AHLPL1070H screenshot exist
[10/Mar/2019 08:29:02] INFO [salattax_app.subscribe_payumoney:1739] Error sending mail: invalid literal for int() with base 10: ''
[10/Mar/2019 08:29:02] INFO [salattax_app.subscribe_payumoney:1584] ANRPB0497J screenshot exist
[10/Mar/2019 08:29:02] INFO [salattax_app.subscribe_payumoney:1739] Error sending mail: int() argument must be a string or a number, not 'NoneType'
[10/Mar/2019 08:29:02] INFO [salattax_app.subscribe_payumoney:1584] DLOPS2352R screenshot exist
[10/Mar/2019 08:29:02] INFO [salattax_app.subscribe_payumoney:1739] Error sending mail: invalid literal for int() with base 10: ''
[10/Mar/2019 08:29:02] INFO [salattax_app.subscribe_payumoney:1584] ABAPW4263E screenshot exist
[10/Mar/2019 08:29:02] INFO [salattax_app.subscribe_payumoney:1739] Error sending mail: invalid literal for int() with base 10: ''
[10/Mar/2019 08:29:02] INFO [salattax_app.subscribe_payumoney:1584] AJRPD4193K screenshot exist
[10/Mar/2019 08:29:02] INFO [salattax_app.subscribe_payumoney:1739] Error sending mail: invalid literal for int() with base 10: ''
[10/Mar/2019 08:29:02] INFO [salattax_app.subscribe_payumoney:1584] ANRPB0497J screenshot exist
[10/Mar/2019 08:29:02] INFO [salattax_app.subscribe_payumoney:1739] Error sending mail: invalid literal for int() with base 10: ''
[10/Mar/2019 08:29:02] INFO [salattax_app.subscribe_payumoney:1584] ABBHS1003B screenshot exist
[10/Mar/2019 08:29:02] INFO [salattax_app.subscribe_payumoney:1739] Error sending mail: invalid literal for int() with base 10: ''
[10/Mar/2019 08:29:02] INFO [salattax_app.subscribe_payumoney:1584] AVPPD7717F screenshot exist
[10/Mar/2019 08:29:02] INFO [salattax_app.subscribe_payumoney:1739] Error sending mail: unsupported locale setting
[10/Mar/2019 08:29:02] INFO [salattax_app.subscribe_payumoney:1584] AKSPM5263B screenshot exist
[10/Mar/2019 08:29:02] INFO [salattax_app.subscribe_payumoney:1739] Error sending mail: unsupported locale setting
[10/Mar/2019 08:29:02] INFO [salattax_app.subscribe_payumoney:1584] APRPG5173L screenshot exist
[10/Mar/2019 08:29:02] INFO [salattax_app.subscribe_payumoney:1739] Error sending mail: unsupported locale setting
[10/Mar/2019 08:30:01] INFO [salattax_app.subscribe_payumoney:1674] Start send_marketing_mail for tax_leakage_report: Sun Mar 10 08:30:01 2019
[10/Mar/2019 08:30:01] INFO [salattax_app.subscribe_payumoney:1584] EGRPK2447C screenshot exist
[10/Mar/2019 08:30:01] INFO [salattax_app.subscribe_payumoney:1739] Error sending mail: unsupported locale setting
[10/Mar/2019 08:30:01] INFO [salattax_app.subscribe_payumoney:1584] ANRPB0497J screenshot exist
[10/Mar/2019 08:30:01] INFO [salattax_app.subscribe_payumoney:1739] Error sending mail: unsupported locale setting
[10/Mar/2019 08:30:01] INFO [salattax_app.subscribe_payumoney:1584] AMOPK2275R screenshot exist
[10/Mar/2019 08:30:01] INFO [salattax_app.subscribe_payumoney:1739] Error sending mail: int() argument must be a string or a number, not 'NoneType'
[10/Mar/2019 08:30:01] INFO [salattax_app.subscribe_payumoney:1584] ACDPL0065F screenshot exist
[10/Mar/2019 08:30:01] INFO [salattax_app.subscribe_payumoney:1739] Error sending mail: invalid literal for int() with base 10: ''
[10/Mar/2019 08:30:01] INFO [salattax_app.subscribe_payumoney:1584] ANRPB0497J screenshot exist
[10/Mar/2019 08:30:01] INFO [salattax_app.subscribe_payumoney:1739] Error sending mail: unsupported locale setting
[10/Mar/2019 08:30:01] INFO [salattax_app.subscribe_payumoney:1584] ACDPL0065F screenshot exist
[10/Mar/2019 08:30:01] INFO [salattax_app.subscribe_payumoney:1739] Error sending mail: unsupported locale setting
[10/Mar/2019 08:30:01] INFO [salattax_app.subscribe_payumoney:1584] AKSPM5263B screenshot exist
[10/Mar/2019 08:30:01] INFO [salattax_app.subscribe_payumoney:1739] Error sending mail: invalid literal for int() with base 10: ''
[10/Mar/2019 08:30:01] INFO [salattax_app.subscribe_payumoney:1584] ANRPB0497J screenshot exist
[10/Mar/2019 08:30:01] INFO [salattax_app.subscribe_payumoney:1739] Error sending mail: invalid literal for int() with base 10: ''
[10/Mar/2019 08:30:01] INFO [salattax_app.subscribe_payumoney:1584] ANRPB0497J screenshot exist
[10/Mar/2019 08:30:01] INFO [salattax_app.subscribe_payumoney:1739] Error sending mail: invalid literal for int() with base 10: ''
[10/Mar/2019 08:30:01] INFO [salattax_app.subscribe_payumoney:1584] ACDPL0065F screenshot exist
[10/Mar/2019 08:30:01] INFO [salattax_app.subscribe_payumoney:1739] Error sending mail: unsupported locale setting
[10/Mar/2019 08:30:01] INFO [salattax_app.subscribe_payumoney:1584] BKPPM8283B screenshot exist
[10/Mar/2019 08:30:01] INFO [salattax_app.subscribe_payumoney:1739] Error sending mail: invalid literal for int() with base 10: ''
[10/Mar/2019 08:30:01] INFO [salattax_app.subscribe_payumoney:1584] BKPPM8283B screenshot exist
[10/Mar/2019 08:30:01] INFO [salattax_app.subscribe_payumoney:1739] Error sending mail: invalid literal for int() with base 10: ''
[10/Mar/2019 08:30:01] INFO [salattax_app.subscribe_payumoney:1584] ANRPB0497J screenshot exist
[10/Mar/2019 08:30:01] INFO [salattax_app.subscribe_payumoney:1739] Error sending mail: unsupported locale setting
[10/Mar/2019 08:30:01] INFO [salattax_app.subscribe_payumoney:1584] ACAPK1080G screenshot exist
[10/Mar/2019 08:30:01] INFO [salattax_app.subscribe_payumoney:1739] Error sending mail: invalid literal for int() with base 10: ''
[10/Mar/2019 08:30:01] INFO [salattax_app.subscribe_payumoney:1584] ACAPK1080G screenshot exist
[10/Mar/2019 08:30:01] INFO [salattax_app.subscribe_payumoney:1739] Error sending mail: invalid literal for int() with base 10: ''
[10/Mar/2019 08:30:01] INFO [salattax_app.subscribe_payumoney:1584] BKPPM8283B screenshot exist
[10/Mar/2019 08:30:01] INFO [salattax_app.subscribe_payumoney:1739] Error sending mail: unsupported locale setting
[10/Mar/2019 08:30:01] INFO [salattax_app.subscribe_payumoney:1584] ANRPB0497J screenshot exist
[10/Mar/2019 08:30:01] INFO [salattax_app.subscribe_payumoney:1739] Error sending mail: invalid literal for int() with base 10: ''
[10/Mar/2019 08:30:01] INFO [salattax_app.subscribe_payumoney:1584] BVTPM4785R screenshot exist
[10/Mar/2019 08:30:01] INFO [salattax_app.subscribe_payumoney:1739] Error sending mail: invalid literal for int() with base 10: ''
[10/Mar/2019 08:30:01] INFO [salattax_app.subscribe_payumoney:1584] ASGPR9583F screenshot exist
[10/Mar/2019 08:30:01] INFO [salattax_app.subscribe_payumoney:1739] Error sending mail: unsupported locale setting
[10/Mar/2019 08:30:01] INFO [salattax_app.subscribe_payumoney:1584] AMOPK2275R screenshot exist
[10/Mar/2019 08:30:01] INFO [salattax_app.subscribe_payumoney:1739] Error sending mail: unsupported locale setting
[10/Mar/2019 08:30:01] INFO [salattax_app.subscribe_payumoney:1584] BJPPB7295F screenshot exist
[10/Mar/2019 08:30:01] INFO [salattax_app.subscribe_payumoney:1739] Error sending mail: invalid literal for int() with base 10: ''
[10/Mar/2019 08:30:01] INFO [salattax_app.subscribe_payumoney:1584] BUDPB7691G screenshot exist
[10/Mar/2019 08:30:01] INFO [salattax_app.subscribe_payumoney:1739] Error sending mail: invalid literal for int() with base 10: ''
[10/Mar/2019 08:30:01] INFO [salattax_app.subscribe_payumoney:1584] AIGPR5746N screenshot exist
[10/Mar/2019 08:30:01] INFO [salattax_app.subscribe_payumoney:1739] Error sending mail: unsupported locale setting
[10/Mar/2019 08:30:01] INFO [salattax_app.subscribe_payumoney:1584] AFKPA4042H screenshot exist
[10/Mar/2019 08:30:01] INFO [salattax_app.subscribe_payumoney:1739] Error sending mail: unsupported locale setting
[10/Mar/2019 08:30:01] INFO [salattax_app.subscribe_payumoney:1584] AHLPL1070H screenshot exist
[10/Mar/2019 08:30:01] INFO [salattax_app.subscribe_payumoney:1739] Error sending mail: invalid literal for int() with base 10: ''
[10/Mar/2019 08:30:01] INFO [salattax_app.subscribe_payumoney:1584] ANRPB0497J screenshot exist
[10/Mar/2019 08:30:01] INFO [salattax_app.subscribe_payumoney:1739] Error sending mail: int() argument must be a string or a number, not 'NoneType'
[10/Mar/2019 08:30:01] INFO [salattax_app.subscribe_payumoney:1584] DLOPS2352R screenshot exist
[10/Mar/2019 08:30:01] INFO [salattax_app.subscribe_payumoney:1739] Error sending mail: invalid literal for int() with base 10: ''
[10/Mar/2019 08:30:01] INFO [salattax_app.subscribe_payumoney:1584] ABAPW4263E screenshot exist
[10/Mar/2019 08:30:01] INFO [salattax_app.subscribe_payumoney:1739] Error sending mail: invalid literal for int() with base 10: ''
[10/Mar/2019 08:30:01] INFO [salattax_app.subscribe_payumoney:1584] AJRPD4193K screenshot exist
[10/Mar/2019 08:30:01] INFO [salattax_app.subscribe_payumoney:1739] Error sending mail: invalid literal for int() with base 10: ''
[10/Mar/2019 08:30:01] INFO [salattax_app.subscribe_payumoney:1584] ANRPB0497J screenshot exist
[10/Mar/2019 08:30:01] INFO [salattax_app.subscribe_payumoney:1739] Error sending mail: invalid literal for int() with base 10: ''
[10/Mar/2019 08:30:01] INFO [salattax_app.subscribe_payumoney:1584] ABBHS1003B screenshot exist
[10/Mar/2019 08:30:01] INFO [salattax_app.subscribe_payumoney:1739] Error sending mail: invalid literal for int() with base 10: ''
[10/Mar/2019 08:30:01] INFO [salattax_app.subscribe_payumoney:1584] AVPPD7717F screenshot exist
[10/Mar/2019 08:30:01] INFO [salattax_app.subscribe_payumoney:1739] Error sending mail: unsupported locale setting
[10/Mar/2019 08:30:01] INFO [salattax_app.subscribe_payumoney:1584] AKSPM5263B screenshot exist
[10/Mar/2019 08:30:01] INFO [salattax_app.subscribe_payumoney:1739] Error sending mail: unsupported locale setting
[10/Mar/2019 08:30:01] INFO [salattax_app.subscribe_payumoney:1584] APRPG5173L screenshot exist
[10/Mar/2019 08:30:01] INFO [salattax_app.subscribe_payumoney:1739] Error sending mail: unsupported locale setting
[10/Mar/2019 10:30:02] INFO [salattax_app.subscribe_payumoney:1674] Start send_marketing_mail for tax_leakage_report: Sun Mar 10 10:30:02 2019
[10/Mar/2019 10:30:02] INFO [salattax_app.subscribe_payumoney:1584] EGRPK2447C screenshot exist
[10/Mar/2019 10:30:02] INFO [salattax_app.subscribe_payumoney:1739] Error sending mail: unsupported locale setting
[10/Mar/2019 10:30:02] INFO [salattax_app.subscribe_payumoney:1584] ANRPB0497J screenshot exist
[10/Mar/2019 10:30:02] INFO [salattax_app.subscribe_payumoney:1739] Error sending mail: unsupported locale setting
[10/Mar/2019 10:30:02] INFO [salattax_app.subscribe_payumoney:1584] AMOPK2275R screenshot exist
[10/Mar/2019 10:30:02] INFO [salattax_app.subscribe_payumoney:1739] Error sending mail: int() argument must be a string or a number, not 'NoneType'
[10/Mar/2019 10:30:02] INFO [salattax_app.subscribe_payumoney:1584] ACDPL0065F screenshot exist
[10/Mar/2019 10:30:02] INFO [salattax_app.subscribe_payumoney:1739] Error sending mail: invalid literal for int() with base 10: ''
[10/Mar/2019 10:30:02] INFO [salattax_app.subscribe_payumoney:1584] ANRPB0497J screenshot exist
[10/Mar/2019 10:30:02] INFO [salattax_app.subscribe_payumoney:1739] Error sending mail: unsupported locale setting
[10/Mar/2019 10:30:02] INFO [salattax_app.subscribe_payumoney:1584] ACDPL0065F screenshot exist
[10/Mar/2019 10:30:02] INFO [salattax_app.subscribe_payumoney:1739] Error sending mail: unsupported locale setting
[10/Mar/2019 10:30:02] INFO [salattax_app.subscribe_payumoney:1584] AKSPM5263B screenshot exist
[10/Mar/2019 10:30:02] INFO [salattax_app.subscribe_payumoney:1739] Error sending mail: invalid literal for int() with base 10: ''
[10/Mar/2019 10:30:02] INFO [salattax_app.subscribe_payumoney:1584] ANRPB0497J screenshot exist
[10/Mar/2019 10:30:02] INFO [salattax_app.subscribe_payumoney:1739] Error sending mail: invalid literal for int() with base 10: ''
[10/Mar/2019 10:30:02] INFO [salattax_app.subscribe_payumoney:1584] ANRPB0497J screenshot exist
[10/Mar/2019 10:30:02] INFO [salattax_app.subscribe_payumoney:1739] Error sending mail: invalid literal for int() with base 10: ''
[10/Mar/2019 10:30:02] INFO [salattax_app.subscribe_payumoney:1584] ACDPL0065F screenshot exist
[10/Mar/2019 10:30:02] INFO [salattax_app.subscribe_payumoney:1739] Error sending mail: unsupported locale setting
[10/Mar/2019 10:30:02] INFO [salattax_app.subscribe_payumoney:1584] BKPPM8283B screenshot exist
[10/Mar/2019 10:30:02] INFO [salattax_app.subscribe_payumoney:1739] Error sending mail: invalid literal for int() with base 10: ''
[10/Mar/2019 10:30:02] INFO [salattax_app.subscribe_payumoney:1584] BKPPM8283B screenshot exist
[10/Mar/2019 10:30:02] INFO [salattax_app.subscribe_payumoney:1739] Error sending mail: invalid literal for int() with base 10: ''
[10/Mar/2019 10:30:02] INFO [salattax_app.subscribe_payumoney:1584] ANRPB0497J screenshot exist
[10/Mar/2019 10:30:02] INFO [salattax_app.subscribe_payumoney:1739] Error sending mail: unsupported locale setting
[10/Mar/2019 10:30:02] INFO [salattax_app.subscribe_payumoney:1584] ACAPK1080G screenshot exist
[10/Mar/2019 10:30:02] INFO [salattax_app.subscribe_payumoney:1739] Error sending mail: invalid literal for int() with base 10: ''
[10/Mar/2019 10:30:02] INFO [salattax_app.subscribe_payumoney:1584] ACAPK1080G screenshot exist
[10/Mar/2019 10:30:02] INFO [salattax_app.subscribe_payumoney:1739] Error sending mail: invalid literal for int() with base 10: ''
[10/Mar/2019 10:30:02] INFO [salattax_app.subscribe_payumoney:1584] BKPPM8283B screenshot exist
[10/Mar/2019 10:30:02] INFO [salattax_app.subscribe_payumoney:1739] Error sending mail: unsupported locale setting
[10/Mar/2019 10:30:02] INFO [salattax_app.subscribe_payumoney:1584] ANRPB0497J screenshot exist
[10/Mar/2019 10:30:02] INFO [salattax_app.subscribe_payumoney:1739] Error sending mail: invalid literal for int() with base 10: ''
[10/Mar/2019 10:30:02] INFO [salattax_app.subscribe_payumoney:1584] BVTPM4785R screenshot exist
[10/Mar/2019 10:30:02] INFO [salattax_app.subscribe_payumoney:1739] Error sending mail: invalid literal for int() with base 10: ''
[10/Mar/2019 10:30:02] INFO [salattax_app.subscribe_payumoney:1584] ASGPR9583F screenshot exist
[10/Mar/2019 10:30:02] INFO [salattax_app.subscribe_payumoney:1739] Error sending mail: unsupported locale setting
[10/Mar/2019 10:30:02] INFO [salattax_app.subscribe_payumoney:1584] AMOPK2275R screenshot exist
[10/Mar/2019 10:30:02] INFO [salattax_app.subscribe_payumoney:1739] Error sending mail: unsupported locale setting
[10/Mar/2019 10:30:02] INFO [salattax_app.subscribe_payumoney:1584] BJPPB7295F screenshot exist
[10/Mar/2019 10:30:02] INFO [salattax_app.subscribe_payumoney:1739] Error sending mail: invalid literal for int() with base 10: ''
[10/Mar/2019 10:30:02] INFO [salattax_app.subscribe_payumoney:1584] BUDPB7691G screenshot exist
[10/Mar/2019 10:30:02] INFO [salattax_app.subscribe_payumoney:1739] Error sending mail: invalid literal for int() with base 10: ''
[10/Mar/2019 10:30:02] INFO [salattax_app.subscribe_payumoney:1584] AIGPR5746N screenshot exist
[10/Mar/2019 10:30:02] INFO [salattax_app.subscribe_payumoney:1739] Error sending mail: unsupported locale setting
[10/Mar/2019 10:30:02] INFO [salattax_app.subscribe_payumoney:1584] AFKPA4042H screenshot exist
[10/Mar/2019 10:30:02] INFO [salattax_app.subscribe_payumoney:1739] Error sending mail: unsupported locale setting
[10/Mar/2019 10:30:02] INFO [salattax_app.subscribe_payumoney:1584] AHLPL1070H screenshot exist
[10/Mar/2019 10:30:02] INFO [salattax_app.subscribe_payumoney:1739] Error sending mail: invalid literal for int() with base 10: ''
[10/Mar/2019 10:30:02] INFO [salattax_app.subscribe_payumoney:1584] ANRPB0497J screenshot exist
[10/Mar/2019 10:30:02] INFO [salattax_app.subscribe_payumoney:1739] Error sending mail: int() argument must be a string or a number, not 'NoneType'
[10/Mar/2019 10:30:02] INFO [salattax_app.subscribe_payumoney:1584] DLOPS2352R screenshot exist
[10/Mar/2019 10:30:02] INFO [salattax_app.subscribe_payumoney:1739] Error sending mail: invalid literal for int() with base 10: ''
[10/Mar/2019 10:30:02] INFO [salattax_app.subscribe_payumoney:1584] ABAPW4263E screenshot exist
[10/Mar/2019 10:30:02] INFO [salattax_app.subscribe_payumoney:1739] Error sending mail: invalid literal for int() with base 10: ''
[10/Mar/2019 10:30:02] INFO [salattax_app.subscribe_payumoney:1584] AJRPD4193K screenshot exist
[10/Mar/2019 10:30:02] INFO [salattax_app.subscribe_payumoney:1739] Error sending mail: invalid literal for int() with base 10: ''
[10/Mar/2019 10:30:02] INFO [salattax_app.subscribe_payumoney:1584] ANRPB0497J screenshot exist
[10/Mar/2019 10:30:02] INFO [salattax_app.subscribe_payumoney:1739] Error sending mail: invalid literal for int() with base 10: ''
[10/Mar/2019 10:30:02] INFO [salattax_app.subscribe_payumoney:1584] ABBHS1003B screenshot exist
[10/Mar/2019 10:30:02] INFO [salattax_app.subscribe_payumoney:1739] Error sending mail: invalid literal for int() with base 10: ''
[10/Mar/2019 10:30:02] INFO [salattax_app.subscribe_payumoney:1584] AVPPD7717F screenshot exist
[10/Mar/2019 10:30:02] INFO [salattax_app.subscribe_payumoney:1739] Error sending mail: unsupported locale setting
[10/Mar/2019 10:30:02] INFO [salattax_app.subscribe_payumoney:1584] AKSPM5263B screenshot exist
[10/Mar/2019 10:30:02] INFO [salattax_app.subscribe_payumoney:1739] Error sending mail: unsupported locale setting
[10/Mar/2019 10:30:02] INFO [salattax_app.subscribe_payumoney:1584] APRPG5173L screenshot exist
[10/Mar/2019 10:30:02] INFO [salattax_app.subscribe_payumoney:1739] Error sending mail: unsupported locale setting
[10/Mar/2019 12:29:02] INFO [salattax_app.subscribe_payumoney:1674] Start send_marketing_mail for tax_leakage_report: Sun Mar 10 12:29:02 2019
[10/Mar/2019 12:29:02] INFO [salattax_app.subscribe_payumoney:1584] EGRPK2447C screenshot exist
[10/Mar/2019 12:29:02] INFO [salattax_app.subscribe_payumoney:1739] Error sending mail: unsupported locale setting
[10/Mar/2019 12:29:02] INFO [salattax_app.subscribe_payumoney:1584] ANRPB0497J screenshot exist
[10/Mar/2019 12:29:02] INFO [salattax_app.subscribe_payumoney:1739] Error sending mail: unsupported locale setting
[10/Mar/2019 12:29:02] INFO [salattax_app.subscribe_payumoney:1584] AMOPK2275R screenshot exist
[10/Mar/2019 12:29:02] INFO [salattax_app.subscribe_payumoney:1739] Error sending mail: int() argument must be a string or a number, not 'NoneType'
[10/Mar/2019 12:29:02] INFO [salattax_app.subscribe_payumoney:1584] ACDPL0065F screenshot exist
[10/Mar/2019 12:29:02] INFO [salattax_app.subscribe_payumoney:1739] Error sending mail: invalid literal for int() with base 10: ''
[10/Mar/2019 12:29:02] INFO [salattax_app.subscribe_payumoney:1584] ANRPB0497J screenshot exist
[10/Mar/2019 12:29:02] INFO [salattax_app.subscribe_payumoney:1739] Error sending mail: unsupported locale setting
[10/Mar/2019 12:29:02] INFO [salattax_app.subscribe_payumoney:1584] ACDPL0065F screenshot exist
[10/Mar/2019 12:29:02] INFO [salattax_app.subscribe_payumoney:1739] Error sending mail: unsupported locale setting
[10/Mar/2019 12:29:02] INFO [salattax_app.subscribe_payumoney:1584] AKSPM5263B screenshot exist
[10/Mar/2019 12:29:02] INFO [salattax_app.subscribe_payumoney:1739] Error sending mail: invalid literal for int() with base 10: ''
[10/Mar/2019 12:29:02] INFO [salattax_app.subscribe_payumoney:1584] ANRPB0497J screenshot exist
[10/Mar/2019 12:29:02] INFO [salattax_app.subscribe_payumoney:1739] Error sending mail: invalid literal for int() with base 10: ''
[10/Mar/2019 12:29:02] INFO [salattax_app.subscribe_payumoney:1584] ANRPB0497J screenshot exist
[10/Mar/2019 12:29:02] INFO [salattax_app.subscribe_payumoney:1739] Error sending mail: invalid literal for int() with base 10: ''
[10/Mar/2019 12:29:02] INFO [salattax_app.subscribe_payumoney:1584] ACDPL0065F screenshot exist
[10/Mar/2019 12:29:02] INFO [salattax_app.subscribe_payumoney:1739] Error sending mail: unsupported locale setting
[10/Mar/2019 12:29:02] INFO [salattax_app.subscribe_payumoney:1584] BKPPM8283B screenshot exist
[10/Mar/2019 12:29:02] INFO [salattax_app.subscribe_payumoney:1739] Error sending mail: invalid literal for int() with base 10: ''
[10/Mar/2019 12:29:02] INFO [salattax_app.subscribe_payumoney:1584] BKPPM8283B screenshot exist
[10/Mar/2019 12:29:02] INFO [salattax_app.subscribe_payumoney:1739] Error sending mail: invalid literal for int() with base 10: ''
[10/Mar/2019 12:29:02] INFO [salattax_app.subscribe_payumoney:1584] ANRPB0497J screenshot exist
[10/Mar/2019 12:29:02] INFO [salattax_app.subscribe_payumoney:1739] Error sending mail: unsupported locale setting
[10/Mar/2019 12:29:02] INFO [salattax_app.subscribe_payumoney:1584] ACAPK1080G screenshot exist
[10/Mar/2019 12:29:02] INFO [salattax_app.subscribe_payumoney:1739] Error sending mail: invalid literal for int() with base 10: ''
[10/Mar/2019 12:29:02] INFO [salattax_app.subscribe_payumoney:1584] ACAPK1080G screenshot exist
[10/Mar/2019 12:29:02] INFO [salattax_app.subscribe_payumoney:1739] Error sending mail: invalid literal for int() with base 10: ''
[10/Mar/2019 12:29:02] INFO [salattax_app.subscribe_payumoney:1584] BKPPM8283B screenshot exist
[10/Mar/2019 12:29:02] INFO [salattax_app.subscribe_payumoney:1739] Error sending mail: unsupported locale setting
[10/Mar/2019 12:29:02] INFO [salattax_app.subscribe_payumoney:1584] ANRPB0497J screenshot exist
[10/Mar/2019 12:29:02] INFO [salattax_app.subscribe_payumoney:1739] Error sending mail: invalid literal for int() with base 10: ''
[10/Mar/2019 12:29:02] INFO [salattax_app.subscribe_payumoney:1584] BVTPM4785R screenshot exist
[10/Mar/2019 12:29:02] INFO [salattax_app.subscribe_payumoney:1739] Error sending mail: invalid literal for int() with base 10: ''
[10/Mar/2019 12:29:02] INFO [salattax_app.subscribe_payumoney:1584] ASGPR9583F screenshot exist
[10/Mar/2019 12:29:02] INFO [salattax_app.subscribe_payumoney:1739] Error sending mail: unsupported locale setting
[10/Mar/2019 12:29:02] INFO [salattax_app.subscribe_payumoney:1584] AMOPK2275R screenshot exist
[10/Mar/2019 12:29:02] INFO [salattax_app.subscribe_payumoney:1739] Error sending mail: unsupported locale setting
[10/Mar/2019 12:29:02] INFO [salattax_app.subscribe_payumoney:1584] BJPPB7295F screenshot exist
[10/Mar/2019 12:29:02] INFO [salattax_app.subscribe_payumoney:1739] Error sending mail: invalid literal for int() with base 10: ''
[10/Mar/2019 12:29:02] INFO [salattax_app.subscribe_payumoney:1584] BUDPB7691G screenshot exist
[10/Mar/2019 12:29:02] INFO [salattax_app.subscribe_payumoney:1739] Error sending mail: invalid literal for int() with base 10: ''
[10/Mar/2019 12:29:02] INFO [salattax_app.subscribe_payumoney:1584] AIGPR5746N screenshot exist
[10/Mar/2019 12:29:02] INFO [salattax_app.subscribe_payumoney:1739] Error sending mail: unsupported locale setting
[10/Mar/2019 12:29:02] INFO [salattax_app.subscribe_payumoney:1584] AFKPA4042H screenshot exist
[10/Mar/2019 12:29:02] INFO [salattax_app.subscribe_payumoney:1739] Error sending mail: unsupported locale setting
[10/Mar/2019 12:29:02] INFO [salattax_app.subscribe_payumoney:1584] AHLPL1070H screenshot exist
[10/Mar/2019 12:29:02] INFO [salattax_app.subscribe_payumoney:1739] Error sending mail: invalid literal for int() with base 10: ''
[10/Mar/2019 12:29:02] INFO [salattax_app.subscribe_payumoney:1584] ANRPB0497J screenshot exist
[10/Mar/2019 12:29:02] INFO [salattax_app.subscribe_payumoney:1739] Error sending mail: int() argument must be a string or a number, not 'NoneType'
[10/Mar/2019 12:29:02] INFO [salattax_app.subscribe_payumoney:1584] DLOPS2352R screenshot exist
[10/Mar/2019 12:29:02] INFO [salattax_app.subscribe_payumoney:1739] Error sending mail: invalid literal for int() with base 10: ''
[10/Mar/2019 12:29:02] INFO [salattax_app.subscribe_payumoney:1584] ABAPW4263E screenshot exist
[10/Mar/2019 12:29:02] INFO [salattax_app.subscribe_payumoney:1739] Error sending mail: invalid literal for int() with base 10: ''
[10/Mar/2019 12:29:02] INFO [salattax_app.subscribe_payumoney:1584] AJRPD4193K screenshot exist
[10/Mar/2019 12:29:02] INFO [salattax_app.subscribe_payumoney:1739] Error sending mail: invalid literal for int() with base 10: ''
[10/Mar/2019 12:29:02] INFO [salattax_app.subscribe_payumoney:1584] ANRPB0497J screenshot exist
[10/Mar/2019 12:29:02] INFO [salattax_app.subscribe_payumoney:1739] Error sending mail: invalid literal for int() with base 10: ''
[10/Mar/2019 12:29:02] INFO [salattax_app.subscribe_payumoney:1584] ABBHS1003B screenshot exist
[10/Mar/2019 12:29:02] INFO [salattax_app.subscribe_payumoney:1739] Error sending mail: invalid literal for int() with base 10: ''
[10/Mar/2019 12:29:02] INFO [salattax_app.subscribe_payumoney:1584] AVPPD7717F screenshot exist
[10/Mar/2019 12:29:02] INFO [salattax_app.subscribe_payumoney:1739] Error sending mail: unsupported locale setting
[10/Mar/2019 12:29:02] INFO [salattax_app.subscribe_payumoney:1584] AKSPM5263B screenshot exist
[10/Mar/2019 12:29:02] INFO [salattax_app.subscribe_payumoney:1739] Error sending mail: unsupported locale setting
[10/Mar/2019 12:29:02] INFO [salattax_app.subscribe_payumoney:1584] APRPG5173L screenshot exist
[10/Mar/2019 12:29:02] INFO [salattax_app.subscribe_payumoney:1739] Error sending mail: unsupported locale setting
[10/Mar/2019 12:30:02] INFO [salattax_app.subscribe_payumoney:1674] Start send_marketing_mail for tax_leakage_report: Sun Mar 10 12:30:02 2019
[10/Mar/2019 12:30:02] INFO [salattax_app.subscribe_payumoney:1584] EGRPK2447C screenshot exist
[10/Mar/2019 12:30:02] INFO [salattax_app.subscribe_payumoney:1739] Error sending mail: unsupported locale setting
[10/Mar/2019 12:30:02] INFO [salattax_app.subscribe_payumoney:1584] ANRPB0497J screenshot exist
[10/Mar/2019 12:30:02] INFO [salattax_app.subscribe_payumoney:1739] Error sending mail: unsupported locale setting
[10/Mar/2019 12:30:02] INFO [salattax_app.subscribe_payumoney:1584] AMOPK2275R screenshot exist
[10/Mar/2019 12:30:02] INFO [salattax_app.subscribe_payumoney:1739] Error sending mail: int() argument must be a string or a number, not 'NoneType'
[10/Mar/2019 12:30:02] INFO [salattax_app.subscribe_payumoney:1584] ACDPL0065F screenshot exist
[10/Mar/2019 12:30:02] INFO [salattax_app.subscribe_payumoney:1739] Error sending mail: invalid literal for int() with base 10: ''
[10/Mar/2019 12:30:02] INFO [salattax_app.subscribe_payumoney:1584] ANRPB0497J screenshot exist
[10/Mar/2019 12:30:02] INFO [salattax_app.subscribe_payumoney:1739] Error sending mail: unsupported locale setting
[10/Mar/2019 12:30:02] INFO [salattax_app.subscribe_payumoney:1584] ACDPL0065F screenshot exist
[10/Mar/2019 12:30:02] INFO [salattax_app.subscribe_payumoney:1739] Error sending mail: unsupported locale setting
[10/Mar/2019 12:30:02] INFO [salattax_app.subscribe_payumoney:1584] AKSPM5263B screenshot exist
[10/Mar/2019 12:30:02] INFO [salattax_app.subscribe_payumoney:1739] Error sending mail: invalid literal for int() with base 10: ''
[10/Mar/2019 12:30:02] INFO [salattax_app.subscribe_payumoney:1584] ANRPB0497J screenshot exist
[10/Mar/2019 12:30:02] INFO [salattax_app.subscribe_payumoney:1739] Error sending mail: invalid literal for int() with base 10: ''
[10/Mar/2019 12:30:02] INFO [salattax_app.subscribe_payumoney:1584] ANRPB0497J screenshot exist
[10/Mar/2019 12:30:02] INFO [salattax_app.subscribe_payumoney:1739] Error sending mail: invalid literal for int() with base 10: ''
[10/Mar/2019 12:30:02] INFO [salattax_app.subscribe_payumoney:1584] ACDPL0065F screenshot exist
[10/Mar/2019 12:30:02] INFO [salattax_app.subscribe_payumoney:1739] Error sending mail: unsupported locale setting
[10/Mar/2019 12:30:02] INFO [salattax_app.subscribe_payumoney:1584] BKPPM8283B screenshot exist
[10/Mar/2019 12:30:02] INFO [salattax_app.subscribe_payumoney:1739] Error sending mail: invalid literal for int() with base 10: ''
[10/Mar/2019 12:30:02] INFO [salattax_app.subscribe_payumoney:1584] BKPPM8283B screenshot exist
[10/Mar/2019 12:30:02] INFO [salattax_app.subscribe_payumoney:1739] Error sending mail: invalid literal for int() with base 10: ''
[10/Mar/2019 12:30:02] INFO [salattax_app.subscribe_payumoney:1584] ANRPB0497J screenshot exist
[10/Mar/2019 12:30:02] INFO [salattax_app.subscribe_payumoney:1739] Error sending mail: unsupported locale setting
[10/Mar/2019 12:30:02] INFO [salattax_app.subscribe_payumoney:1584] ACAPK1080G screenshot exist
[10/Mar/2019 12:30:02] INFO [salattax_app.subscribe_payumoney:1739] Error sending mail: invalid literal for int() with base 10: ''
[10/Mar/2019 12:30:02] INFO [salattax_app.subscribe_payumoney:1584] ACAPK1080G screenshot exist
[10/Mar/2019 12:30:02] INFO [salattax_app.subscribe_payumoney:1739] Error sending mail: invalid literal for int() with base 10: ''
[10/Mar/2019 12:30:02] INFO [salattax_app.subscribe_payumoney:1584] BKPPM8283B screenshot exist
[10/Mar/2019 12:30:02] INFO [salattax_app.subscribe_payumoney:1739] Error sending mail: unsupported locale setting
[10/Mar/2019 12:30:02] INFO [salattax_app.subscribe_payumoney:1584] ANRPB0497J screenshot exist
[10/Mar/2019 12:30:02] INFO [salattax_app.subscribe_payumoney:1739] Error sending mail: invalid literal for int() with base 10: ''
[10/Mar/2019 12:30:02] INFO [salattax_app.subscribe_payumoney:1584] BVTPM4785R screenshot exist
[10/Mar/2019 12:30:02] INFO [salattax_app.subscribe_payumoney:1739] Error sending mail: invalid literal for int() with base 10: ''
[10/Mar/2019 12:30:02] INFO [salattax_app.subscribe_payumoney:1584] ASGPR9583F screenshot exist
[10/Mar/2019 12:30:02] INFO [salattax_app.subscribe_payumoney:1739] Error sending mail: unsupported locale setting
[10/Mar/2019 12:30:02] INFO [salattax_app.subscribe_payumoney:1584] AMOPK2275R screenshot exist
[10/Mar/2019 12:30:02] INFO [salattax_app.subscribe_payumoney:1739] Error sending mail: unsupported locale setting
[10/Mar/2019 12:30:02] INFO [salattax_app.subscribe_payumoney:1584] BJPPB7295F screenshot exist
[10/Mar/2019 12:30:02] INFO [salattax_app.subscribe_payumoney:1739] Error sending mail: invalid literal for int() with base 10: ''
[10/Mar/2019 12:30:02] INFO [salattax_app.subscribe_payumoney:1584] BUDPB7691G screenshot exist
[10/Mar/2019 12:30:02] INFO [salattax_app.subscribe_payumoney:1739] Error sending mail: invalid literal for int() with base 10: ''
[10/Mar/2019 12:30:02] INFO [salattax_app.subscribe_payumoney:1584] AIGPR5746N screenshot exist
[10/Mar/2019 12:30:02] INFO [salattax_app.subscribe_payumoney:1739] Error sending mail: unsupported locale setting
[10/Mar/2019 12:30:02] INFO [salattax_app.subscribe_payumoney:1584] AFKPA4042H screenshot exist
[10/Mar/2019 12:30:02] INFO [salattax_app.subscribe_payumoney:1739] Error sending mail: unsupported locale setting
[10/Mar/2019 12:30:02] INFO [salattax_app.subscribe_payumoney:1584] AHLPL1070H screenshot exist
[10/Mar/2019 12:30:02] INFO [salattax_app.subscribe_payumoney:1739] Error sending mail: invalid literal for int() with base 10: ''
[10/Mar/2019 12:30:02] INFO [salattax_app.subscribe_payumoney:1584] ANRPB0497J screenshot exist
[10/Mar/2019 12:30:02] INFO [salattax_app.subscribe_payumoney:1739] Error sending mail: int() argument must be a string or a number, not 'NoneType'
[10/Mar/2019 12:30:02] INFO [salattax_app.subscribe_payumoney:1584] DLOPS2352R screenshot exist
[10/Mar/2019 12:30:02] INFO [salattax_app.subscribe_payumoney:1739] Error sending mail: invalid literal for int() with base 10: ''
[10/Mar/2019 12:30:02] INFO [salattax_app.subscribe_payumoney:1584] ABAPW4263E screenshot exist
[10/Mar/2019 12:30:02] INFO [salattax_app.subscribe_payumoney:1739] Error sending mail: invalid literal for int() with base 10: ''
[10/Mar/2019 12:30:02] INFO [salattax_app.subscribe_payumoney:1584] AJRPD4193K screenshot exist
[10/Mar/2019 12:30:02] INFO [salattax_app.subscribe_payumoney:1739] Error sending mail: invalid literal for int() with base 10: ''
[10/Mar/2019 12:30:02] INFO [salattax_app.subscribe_payumoney:1584] ANRPB0497J screenshot exist
[10/Mar/2019 12:30:02] INFO [salattax_app.subscribe_payumoney:1739] Error sending mail: invalid literal for int() with base 10: ''
[10/Mar/2019 12:30:02] INFO [salattax_app.subscribe_payumoney:1584] ABBHS1003B screenshot exist
[10/Mar/2019 12:30:02] INFO [salattax_app.subscribe_payumoney:1739] Error sending mail: invalid literal for int() with base 10: ''
[10/Mar/2019 12:30:02] INFO [salattax_app.subscribe_payumoney:1584] AVPPD7717F screenshot exist
[10/Mar/2019 12:30:02] INFO [salattax_app.subscribe_payumoney:1739] Error sending mail: unsupported locale setting
[10/Mar/2019 12:30:02] INFO [salattax_app.subscribe_payumoney:1584] AKSPM5263B screenshot exist
[10/Mar/2019 12:30:02] INFO [salattax_app.subscribe_payumoney:1739] Error sending mail: unsupported locale setting
[10/Mar/2019 12:30:02] INFO [salattax_app.subscribe_payumoney:1584] APRPG5173L screenshot exist
[10/Mar/2019 12:30:02] INFO [salattax_app.subscribe_payumoney:1739] Error sending mail: unsupported locale setting
[10/Mar/2019 15:45:06] INFO [salattax_app.index:700] https://salattax.com/?utm_source=Fb2&fbclid=IwAR3vb_Nswje-PjF3EwuWq4uJy4nGD3ulsHx3eHVcrCy6_jviImOkoA9ADkI
[10/Mar/2019 18:29:02] INFO [salattax_app.subscribe_payumoney:1674] Start send_marketing_mail for tax_leakage_report: Sun Mar 10 18:29:02 2019
[10/Mar/2019 18:29:02] INFO [salattax_app.subscribe_payumoney:1584] EGRPK2447C screenshot exist
[10/Mar/2019 18:29:02] INFO [salattax_app.subscribe_payumoney:1739] Error sending mail: unsupported locale setting
[10/Mar/2019 18:29:02] INFO [salattax_app.subscribe_payumoney:1584] ANRPB0497J screenshot exist
[10/Mar/2019 18:29:02] INFO [salattax_app.subscribe_payumoney:1739] Error sending mail: unsupported locale setting
[10/Mar/2019 18:29:02] INFO [salattax_app.subscribe_payumoney:1584] AMOPK2275R screenshot exist
[10/Mar/2019 18:29:02] INFO [salattax_app.subscribe_payumoney:1739] Error sending mail: int() argument must be a string or a number, not 'NoneType'
[10/Mar/2019 18:29:02] INFO [salattax_app.subscribe_payumoney:1584] ACDPL0065F screenshot exist
[10/Mar/2019 18:29:02] INFO [salattax_app.subscribe_payumoney:1739] Error sending mail: invalid literal for int() with base 10: ''
[10/Mar/2019 18:29:02] INFO [salattax_app.subscribe_payumoney:1584] ANRPB0497J screenshot exist
[10/Mar/2019 18:29:02] INFO [salattax_app.subscribe_payumoney:1739] Error sending mail: unsupported locale setting
[10/Mar/2019 18:29:02] INFO [salattax_app.subscribe_payumoney:1584] ACDPL0065F screenshot exist
[10/Mar/2019 18:29:02] INFO [salattax_app.subscribe_payumoney:1739] Error sending mail: unsupported locale setting
[10/Mar/2019 18:29:02] INFO [salattax_app.subscribe_payumoney:1584] AKSPM5263B screenshot exist
[10/Mar/2019 18:29:02] INFO [salattax_app.subscribe_payumoney:1739] Error sending mail: invalid literal for int() with base 10: ''
[10/Mar/2019 18:29:02] INFO [salattax_app.subscribe_payumoney:1584] ANRPB0497J screenshot exist
[10/Mar/2019 18:29:02] INFO [salattax_app.subscribe_payumoney:1739] Error sending mail: invalid literal for int() with base 10: ''
[10/Mar/2019 18:29:02] INFO [salattax_app.subscribe_payumoney:1584] ANRPB0497J screenshot exist
[10/Mar/2019 18:29:02] INFO [salattax_app.subscribe_payumoney:1739] Error sending mail: invalid literal for int() with base 10: ''
[10/Mar/2019 18:29:02] INFO [salattax_app.subscribe_payumoney:1584] ACDPL0065F screenshot exist
[10/Mar/2019 18:29:02] INFO [salattax_app.subscribe_payumoney:1739] Error sending mail: unsupported locale setting
[10/Mar/2019 18:29:02] INFO [salattax_app.subscribe_payumoney:1584] BKPPM8283B screenshot exist
[10/Mar/2019 18:29:02] INFO [salattax_app.subscribe_payumoney:1739] Error sending mail: invalid literal for int() with base 10: ''
[10/Mar/2019 18:29:02] INFO [salattax_app.subscribe_payumoney:1584] BKPPM8283B screenshot exist
[10/Mar/2019 18:29:02] INFO [salattax_app.subscribe_payumoney:1739] Error sending mail: invalid literal for int() with base 10: ''
[10/Mar/2019 18:29:02] INFO [salattax_app.subscribe_payumoney:1584] ANRPB0497J screenshot exist
[10/Mar/2019 18:29:02] INFO [salattax_app.subscribe_payumoney:1739] Error sending mail: unsupported locale setting
[10/Mar/2019 18:29:02] INFO [salattax_app.subscribe_payumoney:1584] ACAPK1080G screenshot exist
[10/Mar/2019 18:29:02] INFO [salattax_app.subscribe_payumoney:1739] Error sending mail: invalid literal for int() with base 10: ''
[10/Mar/2019 18:29:02] INFO [salattax_app.subscribe_payumoney:1584] ACAPK1080G screenshot exist
[10/Mar/2019 18:29:02] INFO [salattax_app.subscribe_payumoney:1739] Error sending mail: invalid literal for int() with base 10: ''
[10/Mar/2019 18:29:02] INFO [salattax_app.subscribe_payumoney:1584] BKPPM8283B screenshot exist
[10/Mar/2019 18:29:02] INFO [salattax_app.subscribe_payumoney:1739] Error sending mail: unsupported locale setting
[10/Mar/2019 18:29:02] INFO [salattax_app.subscribe_payumoney:1584] ANRPB0497J screenshot exist
[10/Mar/2019 18:29:02] INFO [salattax_app.subscribe_payumoney:1739] Error sending mail: invalid literal for int() with base 10: ''
[10/Mar/2019 18:29:02] INFO [salattax_app.subscribe_payumoney:1584] BVTPM4785R screenshot exist
[10/Mar/2019 18:29:02] INFO [salattax_app.subscribe_payumoney:1739] Error sending mail: invalid literal for int() with base 10: ''
[10/Mar/2019 18:29:02] INFO [salattax_app.subscribe_payumoney:1584] ASGPR9583F screenshot exist
[10/Mar/2019 18:29:02] INFO [salattax_app.subscribe_payumoney:1739] Error sending mail: unsupported locale setting
[10/Mar/2019 18:29:02] INFO [salattax_app.subscribe_payumoney:1584] AMOPK2275R screenshot exist
[10/Mar/2019 18:29:02] INFO [salattax_app.subscribe_payumoney:1739] Error sending mail: unsupported locale setting
[10/Mar/2019 18:29:02] INFO [salattax_app.subscribe_payumoney:1584] BJPPB7295F screenshot exist
[10/Mar/2019 18:29:02] INFO [salattax_app.subscribe_payumoney:1739] Error sending mail: invalid literal for int() with base 10: ''
[10/Mar/2019 18:29:02] INFO [salattax_app.subscribe_payumoney:1584] BUDPB7691G screenshot exist
[10/Mar/2019 18:29:02] INFO [salattax_app.subscribe_payumoney:1739] Error sending mail: invalid literal for int() with base 10: ''
[10/Mar/2019 18:29:02] INFO [salattax_app.subscribe_payumoney:1584] AIGPR5746N screenshot exist
[10/Mar/2019 18:29:02] INFO [salattax_app.subscribe_payumoney:1739] Error sending mail: unsupported locale setting
[10/Mar/2019 18:29:02] INFO [salattax_app.subscribe_payumoney:1584] AFKPA4042H screenshot exist
[10/Mar/2019 18:29:02] INFO [salattax_app.subscribe_payumoney:1739] Error sending mail: unsupported locale setting
[10/Mar/2019 18:29:02] INFO [salattax_app.subscribe_payumoney:1584] AHLPL1070H screenshot exist
[10/Mar/2019 18:29:02] INFO [salattax_app.subscribe_payumoney:1739] Error sending mail: invalid literal for int() with base 10: ''
[10/Mar/2019 18:29:02] INFO [salattax_app.subscribe_payumoney:1584] ANRPB0497J screenshot exist
[10/Mar/2019 18:29:02] INFO [salattax_app.subscribe_payumoney:1739] Error sending mail: int() argument must be a string or a number, not 'NoneType'
[10/Mar/2019 18:29:02] INFO [salattax_app.subscribe_payumoney:1584] DLOPS2352R screenshot exist
[10/Mar/2019 18:29:02] INFO [salattax_app.subscribe_payumoney:1739] Error sending mail: invalid literal for int() with base 10: ''
[10/Mar/2019 18:29:02] INFO [salattax_app.subscribe_payumoney:1584] ABAPW4263E screenshot exist
[10/Mar/2019 18:29:02] INFO [salattax_app.subscribe_payumoney:1739] Error sending mail: invalid literal for int() with base 10: ''
[10/Mar/2019 18:29:02] INFO [salattax_app.subscribe_payumoney:1584] AJRPD4193K screenshot exist
[10/Mar/2019 18:29:02] INFO [salattax_app.subscribe_payumoney:1739] Error sending mail: invalid literal for int() with base 10: ''
[10/Mar/2019 18:29:02] INFO [salattax_app.subscribe_payumoney:1584] ANRPB0497J screenshot exist
[10/Mar/2019 18:29:02] INFO [salattax_app.subscribe_payumoney:1739] Error sending mail: invalid literal for int() with base 10: ''
[10/Mar/2019 18:29:02] INFO [salattax_app.subscribe_payumoney:1584] ABBHS1003B screenshot exist
[10/Mar/2019 18:29:02] INFO [salattax_app.subscribe_payumoney:1739] Error sending mail: invalid literal for int() with base 10: ''
[10/Mar/2019 18:29:02] INFO [salattax_app.subscribe_payumoney:1584] AVPPD7717F screenshot exist
[10/Mar/2019 18:29:02] INFO [salattax_app.subscribe_payumoney:1739] Error sending mail: unsupported locale setting
[10/Mar/2019 18:29:02] INFO [salattax_app.subscribe_payumoney:1584] AKSPM5263B screenshot exist
[10/Mar/2019 18:29:02] INFO [salattax_app.subscribe_payumoney:1739] Error sending mail: unsupported locale setting
[10/Mar/2019 18:29:02] INFO [salattax_app.subscribe_payumoney:1584] APRPG5173L screenshot exist
[10/Mar/2019 18:29:02] INFO [salattax_app.subscribe_payumoney:1739] Error sending mail: unsupported locale setting
[10/Mar/2019 19:30:02] INFO [salattax_app.subscribe_payumoney:1674] Start send_marketing_mail for tax_leakage_report: Sun Mar 10 19:30:02 2019
[10/Mar/2019 19:30:02] INFO [salattax_app.subscribe_payumoney:1584] EGRPK2447C screenshot exist
[10/Mar/2019 19:30:02] INFO [salattax_app.subscribe_payumoney:1739] Error sending mail: unsupported locale setting
[10/Mar/2019 19:30:02] INFO [salattax_app.subscribe_payumoney:1584] ANRPB0497J screenshot exist
[10/Mar/2019 19:30:02] INFO [salattax_app.subscribe_payumoney:1739] Error sending mail: unsupported locale setting
[10/Mar/2019 19:30:02] INFO [salattax_app.subscribe_payumoney:1584] AMOPK2275R screenshot exist
[10/Mar/2019 19:30:02] INFO [salattax_app.subscribe_payumoney:1739] Error sending mail: int() argument must be a string or a number, not 'NoneType'
[10/Mar/2019 19:30:02] INFO [salattax_app.subscribe_payumoney:1584] ACDPL0065F screenshot exist
[10/Mar/2019 19:30:02] INFO [salattax_app.subscribe_payumoney:1739] Error sending mail: invalid literal for int() with base 10: ''
[10/Mar/2019 19:30:02] INFO [salattax_app.subscribe_payumoney:1584] ANRPB0497J screenshot exist
[10/Mar/2019 19:30:02] INFO [salattax_app.subscribe_payumoney:1739] Error sending mail: unsupported locale setting
[10/Mar/2019 19:30:02] INFO [salattax_app.subscribe_payumoney:1584] ACDPL0065F screenshot exist
[10/Mar/2019 19:30:02] INFO [salattax_app.subscribe_payumoney:1739] Error sending mail: unsupported locale setting
[10/Mar/2019 19:30:02] INFO [salattax_app.subscribe_payumoney:1584] AKSPM5263B screenshot exist
[10/Mar/2019 19:30:02] INFO [salattax_app.subscribe_payumoney:1739] Error sending mail: invalid literal for int() with base 10: ''
[10/Mar/2019 19:30:02] INFO [salattax_app.subscribe_payumoney:1584] ANRPB0497J screenshot exist
[10/Mar/2019 19:30:02] INFO [salattax_app.subscribe_payumoney:1739] Error sending mail: invalid literal for int() with base 10: ''
[10/Mar/2019 19:30:02] INFO [salattax_app.subscribe_payumoney:1584] ANRPB0497J screenshot exist
[10/Mar/2019 19:30:02] INFO [salattax_app.subscribe_payumoney:1739] Error sending mail: invalid literal for int() with base 10: ''
[10/Mar/2019 19:30:02] INFO [salattax_app.subscribe_payumoney:1584] ACDPL0065F screenshot exist
[10/Mar/2019 19:30:02] INFO [salattax_app.subscribe_payumoney:1739] Error sending mail: unsupported locale setting
[10/Mar/2019 19:30:02] INFO [salattax_app.subscribe_payumoney:1584] BKPPM8283B screenshot exist
[10/Mar/2019 19:30:02] INFO [salattax_app.subscribe_payumoney:1739] Error sending mail: invalid literal for int() with base 10: ''
[10/Mar/2019 19:30:02] INFO [salattax_app.subscribe_payumoney:1584] BKPPM8283B screenshot exist
[10/Mar/2019 19:30:02] INFO [salattax_app.subscribe_payumoney:1739] Error sending mail: invalid literal for int() with base 10: ''
[10/Mar/2019 19:30:02] INFO [salattax_app.subscribe_payumoney:1584] ANRPB0497J screenshot exist
[10/Mar/2019 19:30:02] INFO [salattax_app.subscribe_payumoney:1739] Error sending mail: unsupported locale setting
[10/Mar/2019 19:30:02] INFO [salattax_app.subscribe_payumoney:1584] ACAPK1080G screenshot exist
[10/Mar/2019 19:30:02] INFO [salattax_app.subscribe_payumoney:1739] Error sending mail: invalid literal for int() with base 10: ''
[10/Mar/2019 19:30:02] INFO [salattax_app.subscribe_payumoney:1584] ACAPK1080G screenshot exist
[10/Mar/2019 19:30:02] INFO [salattax_app.subscribe_payumoney:1739] Error sending mail: invalid literal for int() with base 10: ''
[10/Mar/2019 19:30:02] INFO [salattax_app.subscribe_payumoney:1584] BKPPM8283B screenshot exist
[10/Mar/2019 19:30:02] INFO [salattax_app.subscribe_payumoney:1739] Error sending mail: unsupported locale setting
[10/Mar/2019 19:30:02] INFO [salattax_app.subscribe_payumoney:1584] ANRPB0497J screenshot exist
[10/Mar/2019 19:30:02] INFO [salattax_app.subscribe_payumoney:1739] Error sending mail: invalid literal for int() with base 10: ''
[10/Mar/2019 19:30:02] INFO [salattax_app.subscribe_payumoney:1584] BVTPM4785R screenshot exist
[10/Mar/2019 19:30:02] INFO [salattax_app.subscribe_payumoney:1739] Error sending mail: invalid literal for int() with base 10: ''
[10/Mar/2019 19:30:02] INFO [salattax_app.subscribe_payumoney:1584] ASGPR9583F screenshot exist
[10/Mar/2019 19:30:02] INFO [salattax_app.subscribe_payumoney:1739] Error sending mail: unsupported locale setting
[10/Mar/2019 19:30:02] INFO [salattax_app.subscribe_payumoney:1584] AMOPK2275R screenshot exist
[10/Mar/2019 19:30:02] INFO [salattax_app.subscribe_payumoney:1739] Error sending mail: unsupported locale setting
[10/Mar/2019 19:30:02] INFO [salattax_app.subscribe_payumoney:1584] BJPPB7295F screenshot exist
[10/Mar/2019 19:30:02] INFO [salattax_app.subscribe_payumoney:1739] Error sending mail: invalid literal for int() with base 10: ''
[10/Mar/2019 19:30:02] INFO [salattax_app.subscribe_payumoney:1584] BUDPB7691G screenshot exist
[10/Mar/2019 19:30:02] INFO [salattax_app.subscribe_payumoney:1739] Error sending mail: invalid literal for int() with base 10: ''
[10/Mar/2019 19:30:02] INFO [salattax_app.subscribe_payumoney:1584] AIGPR5746N screenshot exist
[10/Mar/2019 19:30:02] INFO [salattax_app.subscribe_payumoney:1739] Error sending mail: unsupported locale setting
[10/Mar/2019 19:30:02] INFO [salattax_app.subscribe_payumoney:1584] AFKPA4042H screenshot exist
[10/Mar/2019 19:30:02] INFO [salattax_app.subscribe_payumoney:1739] Error sending mail: unsupported locale setting
[10/Mar/2019 19:30:02] INFO [salattax_app.subscribe_payumoney:1584] AHLPL1070H screenshot exist
[10/Mar/2019 19:30:02] INFO [salattax_app.subscribe_payumoney:1739] Error sending mail: invalid literal for int() with base 10: ''
[10/Mar/2019 19:30:02] INFO [salattax_app.subscribe_payumoney:1584] ANRPB0497J screenshot exist
[10/Mar/2019 19:30:02] INFO [salattax_app.subscribe_payumoney:1739] Error sending mail: int() argument must be a string or a number, not 'NoneType'
[10/Mar/2019 19:30:02] INFO [salattax_app.subscribe_payumoney:1584] DLOPS2352R screenshot exist
[10/Mar/2019 19:30:02] INFO [salattax_app.subscribe_payumoney:1739] Error sending mail: invalid literal for int() with base 10: ''
[10/Mar/2019 19:30:02] INFO [salattax_app.subscribe_payumoney:1584] ABAPW4263E screenshot exist
[10/Mar/2019 19:30:02] INFO [salattax_app.subscribe_payumoney:1739] Error sending mail: invalid literal for int() with base 10: ''
[10/Mar/2019 19:30:02] INFO [salattax_app.subscribe_payumoney:1584] AJRPD4193K screenshot exist
[10/Mar/2019 19:30:02] INFO [salattax_app.subscribe_payumoney:1739] Error sending mail: invalid literal for int() with base 10: ''
[10/Mar/2019 19:30:02] INFO [salattax_app.subscribe_payumoney:1584] ANRPB0497J screenshot exist
[10/Mar/2019 19:30:02] INFO [salattax_app.subscribe_payumoney:1739] Error sending mail: invalid literal for int() with base 10: ''
[10/Mar/2019 19:30:02] INFO [salattax_app.subscribe_payumoney:1584] ABBHS1003B screenshot exist
[10/Mar/2019 19:30:02] INFO [salattax_app.subscribe_payumoney:1739] Error sending mail: invalid literal for int() with base 10: ''
[10/Mar/2019 19:30:02] INFO [salattax_app.subscribe_payumoney:1584] AVPPD7717F screenshot exist
[10/Mar/2019 19:30:02] INFO [salattax_app.subscribe_payumoney:1739] Error sending mail: unsupported locale setting
[10/Mar/2019 19:30:02] INFO [salattax_app.subscribe_payumoney:1584] AKSPM5263B screenshot exist
[10/Mar/2019 19:30:02] INFO [salattax_app.subscribe_payumoney:1739] Error sending mail: unsupported locale setting
[10/Mar/2019 19:30:02] INFO [salattax_app.subscribe_payumoney:1584] APRPG5173L screenshot exist
[10/Mar/2019 19:30:02] INFO [salattax_app.subscribe_payumoney:1739] Error sending mail: unsupported locale setting
[10/Mar/2019 20:29:02] INFO [salattax_app.subscribe_payumoney:1674] Start send_marketing_mail for tax_leakage_report: Sun Mar 10 20:29:02 2019
[10/Mar/2019 20:29:02] INFO [salattax_app.subscribe_payumoney:1584] EGRPK2447C screenshot exist
[10/Mar/2019 20:29:02] INFO [salattax_app.subscribe_payumoney:1739] Error sending mail: unsupported locale setting
[10/Mar/2019 20:29:02] INFO [salattax_app.subscribe_payumoney:1584] ANRPB0497J screenshot exist
[10/Mar/2019 20:29:02] INFO [salattax_app.subscribe_payumoney:1739] Error sending mail: unsupported locale setting
[10/Mar/2019 20:29:02] INFO [salattax_app.subscribe_payumoney:1584] AMOPK2275R screenshot exist
[10/Mar/2019 20:29:02] INFO [salattax_app.subscribe_payumoney:1739] Error sending mail: int() argument must be a string or a number, not 'NoneType'
[10/Mar/2019 20:29:02] INFO [salattax_app.subscribe_payumoney:1584] ACDPL0065F screenshot exist
[10/Mar/2019 20:29:02] INFO [salattax_app.subscribe_payumoney:1739] Error sending mail: invalid literal for int() with base 10: ''
[10/Mar/2019 20:29:02] INFO [salattax_app.subscribe_payumoney:1584] ANRPB0497J screenshot exist
[10/Mar/2019 20:29:02] INFO [salattax_app.subscribe_payumoney:1739] Error sending mail: unsupported locale setting
[10/Mar/2019 20:29:02] INFO [salattax_app.subscribe_payumoney:1584] ACDPL0065F screenshot exist
[10/Mar/2019 20:29:02] INFO [salattax_app.subscribe_payumoney:1739] Error sending mail: unsupported locale setting
[10/Mar/2019 20:29:02] INFO [salattax_app.subscribe_payumoney:1584] AKSPM5263B screenshot exist
[10/Mar/2019 20:29:02] INFO [salattax_app.subscribe_payumoney:1739] Error sending mail: invalid literal for int() with base 10: ''
[10/Mar/2019 20:29:02] INFO [salattax_app.subscribe_payumoney:1584] ANRPB0497J screenshot exist
[10/Mar/2019 20:29:02] INFO [salattax_app.subscribe_payumoney:1739] Error sending mail: invalid literal for int() with base 10: ''
[10/Mar/2019 20:29:02] INFO [salattax_app.subscribe_payumoney:1584] ANRPB0497J screenshot exist
[10/Mar/2019 20:29:02] INFO [salattax_app.subscribe_payumoney:1739] Error sending mail: invalid literal for int() with base 10: ''
[10/Mar/2019 20:29:02] INFO [salattax_app.subscribe_payumoney:1584] ACDPL0065F screenshot exist
[10/Mar/2019 20:29:02] INFO [salattax_app.subscribe_payumoney:1739] Error sending mail: unsupported locale setting
[10/Mar/2019 20:29:02] INFO [salattax_app.subscribe_payumoney:1584] BKPPM8283B screenshot exist
[10/Mar/2019 20:29:02] INFO [salattax_app.subscribe_payumoney:1739] Error sending mail: invalid literal for int() with base 10: ''
[10/Mar/2019 20:29:02] INFO [salattax_app.subscribe_payumoney:1584] BKPPM8283B screenshot exist
[10/Mar/2019 20:29:02] INFO [salattax_app.subscribe_payumoney:1739] Error sending mail: invalid literal for int() with base 10: ''
[10/Mar/2019 20:29:02] INFO [salattax_app.subscribe_payumoney:1584] ANRPB0497J screenshot exist
[10/Mar/2019 20:29:02] INFO [salattax_app.subscribe_payumoney:1739] Error sending mail: unsupported locale setting
[10/Mar/2019 20:29:02] INFO [salattax_app.subscribe_payumoney:1584] ACAPK1080G screenshot exist
[10/Mar/2019 20:29:02] INFO [salattax_app.subscribe_payumoney:1739] Error sending mail: invalid literal for int() with base 10: ''
[10/Mar/2019 20:29:02] INFO [salattax_app.subscribe_payumoney:1584] ACAPK1080G screenshot exist
[10/Mar/2019 20:29:02] INFO [salattax_app.subscribe_payumoney:1739] Error sending mail: invalid literal for int() with base 10: ''
[10/Mar/2019 20:29:02] INFO [salattax_app.subscribe_payumoney:1584] BKPPM8283B screenshot exist
[10/Mar/2019 20:29:02] INFO [salattax_app.subscribe_payumoney:1739] Error sending mail: unsupported locale setting
[10/Mar/2019 20:29:02] INFO [salattax_app.subscribe_payumoney:1584] ANRPB0497J screenshot exist
[10/Mar/2019 20:29:02] INFO [salattax_app.subscribe_payumoney:1739] Error sending mail: invalid literal for int() with base 10: ''
[10/Mar/2019 20:29:02] INFO [salattax_app.subscribe_payumoney:1584] BVTPM4785R screenshot exist
[10/Mar/2019 20:29:02] INFO [salattax_app.subscribe_payumoney:1739] Error sending mail: invalid literal for int() with base 10: ''
[10/Mar/2019 20:29:02] INFO [salattax_app.subscribe_payumoney:1584] ASGPR9583F screenshot exist
[10/Mar/2019 20:29:02] INFO [salattax_app.subscribe_payumoney:1739] Error sending mail: unsupported locale setting
[10/Mar/2019 20:29:02] INFO [salattax_app.subscribe_payumoney:1584] AMOPK2275R screenshot exist
[10/Mar/2019 20:29:02] INFO [salattax_app.subscribe_payumoney:1739] Error sending mail: unsupported locale setting
[10/Mar/2019 20:29:02] INFO [salattax_app.subscribe_payumoney:1584] BJPPB7295F screenshot exist
[10/Mar/2019 20:29:02] INFO [salattax_app.subscribe_payumoney:1739] Error sending mail: invalid literal for int() with base 10: ''
[10/Mar/2019 20:29:02] INFO [salattax_app.subscribe_payumoney:1584] BUDPB7691G screenshot exist
[10/Mar/2019 20:29:02] INFO [salattax_app.subscribe_payumoney:1739] Error sending mail: invalid literal for int() with base 10: ''
[10/Mar/2019 20:29:02] INFO [salattax_app.subscribe_payumoney:1584] AIGPR5746N screenshot exist
[10/Mar/2019 20:29:02] INFO [salattax_app.subscribe_payumoney:1739] Error sending mail: unsupported locale setting
[10/Mar/2019 20:29:02] INFO [salattax_app.subscribe_payumoney:1584] AFKPA4042H screenshot exist
[10/Mar/2019 20:29:02] INFO [salattax_app.subscribe_payumoney:1739] Error sending mail: unsupported locale setting
[10/Mar/2019 20:29:02] INFO [salattax_app.subscribe_payumoney:1584] AHLPL1070H screenshot exist
[10/Mar/2019 20:29:02] INFO [salattax_app.subscribe_payumoney:1739] Error sending mail: invalid literal for int() with base 10: ''
[10/Mar/2019 20:29:02] INFO [salattax_app.subscribe_payumoney:1584] ANRPB0497J screenshot exist
[10/Mar/2019 20:29:02] INFO [salattax_app.subscribe_payumoney:1739] Error sending mail: int() argument must be a string or a number, not 'NoneType'
[10/Mar/2019 20:29:02] INFO [salattax_app.subscribe_payumoney:1584] DLOPS2352R screenshot exist
[10/Mar/2019 20:29:02] INFO [salattax_app.subscribe_payumoney:1739] Error sending mail: invalid literal for int() with base 10: ''
[10/Mar/2019 20:29:02] INFO [salattax_app.subscribe_payumoney:1584] ABAPW4263E screenshot exist
[10/Mar/2019 20:29:02] INFO [salattax_app.subscribe_payumoney:1739] Error sending mail: invalid literal for int() with base 10: ''
[10/Mar/2019 20:29:02] INFO [salattax_app.subscribe_payumoney:1584] AJRPD4193K screenshot exist
[10/Mar/2019 20:29:02] INFO [salattax_app.subscribe_payumoney:1739] Error sending mail: invalid literal for int() with base 10: ''
[10/Mar/2019 20:29:02] INFO [salattax_app.subscribe_payumoney:1584] ANRPB0497J screenshot exist
[10/Mar/2019 20:29:02] INFO [salattax_app.subscribe_payumoney:1739] Error sending mail: invalid literal for int() with base 10: ''
[10/Mar/2019 20:29:02] INFO [salattax_app.subscribe_payumoney:1584] ABBHS1003B screenshot exist
[10/Mar/2019 20:29:02] INFO [salattax_app.subscribe_payumoney:1739] Error sending mail: invalid literal for int() with base 10: ''
[10/Mar/2019 20:29:02] INFO [salattax_app.subscribe_payumoney:1584] AVPPD7717F screenshot exist
[10/Mar/2019 20:29:02] INFO [salattax_app.subscribe_payumoney:1739] Error sending mail: unsupported locale setting
[10/Mar/2019 20:29:02] INFO [salattax_app.subscribe_payumoney:1584] AKSPM5263B screenshot exist
[10/Mar/2019 20:29:02] INFO [salattax_app.subscribe_payumoney:1739] Error sending mail: unsupported locale setting
[10/Mar/2019 20:29:02] INFO [salattax_app.subscribe_payumoney:1584] APRPG5173L screenshot exist
[10/Mar/2019 20:29:02] INFO [salattax_app.subscribe_payumoney:1739] Error sending mail: unsupported locale setting
[11/Mar/2019 02:29:01] INFO [salattax_app.subscribe_payumoney:1674] Start send_marketing_mail for tax_leakage_report: Mon Mar 11 02:29:01 2019
[11/Mar/2019 02:29:01] INFO [salattax_app.subscribe_payumoney:1584] EGRPK2447C screenshot exist
[11/Mar/2019 02:29:01] INFO [salattax_app.subscribe_payumoney:1739] Error sending mail: unsupported locale setting
[11/Mar/2019 02:29:01] INFO [salattax_app.subscribe_payumoney:1584] ANRPB0497J screenshot exist
[11/Mar/2019 02:29:01] INFO [salattax_app.subscribe_payumoney:1739] Error sending mail: unsupported locale setting
[11/Mar/2019 02:29:01] INFO [salattax_app.subscribe_payumoney:1584] AMOPK2275R screenshot exist
[11/Mar/2019 02:29:01] INFO [salattax_app.subscribe_payumoney:1739] Error sending mail: int() argument must be a string or a number, not 'NoneType'
[11/Mar/2019 02:29:01] INFO [salattax_app.subscribe_payumoney:1584] ACDPL0065F screenshot exist
[11/Mar/2019 02:29:01] INFO [salattax_app.subscribe_payumoney:1739] Error sending mail: invalid literal for int() with base 10: ''
[11/Mar/2019 02:29:01] INFO [salattax_app.subscribe_payumoney:1584] ANRPB0497J screenshot exist
[11/Mar/2019 02:29:01] INFO [salattax_app.subscribe_payumoney:1739] Error sending mail: unsupported locale setting
[11/Mar/2019 02:29:01] INFO [salattax_app.subscribe_payumoney:1584] ACDPL0065F screenshot exist
[11/Mar/2019 02:29:01] INFO [salattax_app.subscribe_payumoney:1739] Error sending mail: unsupported locale setting
[11/Mar/2019 02:29:01] INFO [salattax_app.subscribe_payumoney:1584] AKSPM5263B screenshot exist
[11/Mar/2019 02:29:01] INFO [salattax_app.subscribe_payumoney:1739] Error sending mail: invalid literal for int() with base 10: ''
[11/Mar/2019 02:29:01] INFO [salattax_app.subscribe_payumoney:1584] ANRPB0497J screenshot exist
[11/Mar/2019 02:29:01] INFO [salattax_app.subscribe_payumoney:1739] Error sending mail: invalid literal for int() with base 10: ''
[11/Mar/2019 02:29:01] INFO [salattax_app.subscribe_payumoney:1584] ANRPB0497J screenshot exist
[11/Mar/2019 02:29:01] INFO [salattax_app.subscribe_payumoney:1739] Error sending mail: invalid literal for int() with base 10: ''
[11/Mar/2019 02:29:01] INFO [salattax_app.subscribe_payumoney:1584] ACDPL0065F screenshot exist
[11/Mar/2019 02:29:01] INFO [salattax_app.subscribe_payumoney:1739] Error sending mail: unsupported locale setting
[11/Mar/2019 02:29:01] INFO [salattax_app.subscribe_payumoney:1584] BKPPM8283B screenshot exist
[11/Mar/2019 02:29:01] INFO [salattax_app.subscribe_payumoney:1739] Error sending mail: invalid literal for int() with base 10: ''
[11/Mar/2019 02:29:01] INFO [salattax_app.subscribe_payumoney:1584] BKPPM8283B screenshot exist
[11/Mar/2019 02:29:01] INFO [salattax_app.subscribe_payumoney:1739] Error sending mail: invalid literal for int() with base 10: ''
[11/Mar/2019 02:29:01] INFO [salattax_app.subscribe_payumoney:1584] ANRPB0497J screenshot exist
[11/Mar/2019 02:29:01] INFO [salattax_app.subscribe_payumoney:1739] Error sending mail: unsupported locale setting
[11/Mar/2019 02:29:01] INFO [salattax_app.subscribe_payumoney:1584] ACAPK1080G screenshot exist
[11/Mar/2019 02:29:01] INFO [salattax_app.subscribe_payumoney:1739] Error sending mail: invalid literal for int() with base 10: ''
[11/Mar/2019 02:29:01] INFO [salattax_app.subscribe_payumoney:1584] ACAPK1080G screenshot exist
[11/Mar/2019 02:29:01] INFO [salattax_app.subscribe_payumoney:1739] Error sending mail: invalid literal for int() with base 10: ''
[11/Mar/2019 02:29:01] INFO [salattax_app.subscribe_payumoney:1584] BKPPM8283B screenshot exist
[11/Mar/2019 02:29:01] INFO [salattax_app.subscribe_payumoney:1739] Error sending mail: unsupported locale setting
[11/Mar/2019 02:29:01] INFO [salattax_app.subscribe_payumoney:1584] ANRPB0497J screenshot exist
[11/Mar/2019 02:29:01] INFO [salattax_app.subscribe_payumoney:1739] Error sending mail: invalid literal for int() with base 10: ''
[11/Mar/2019 02:29:01] INFO [salattax_app.subscribe_payumoney:1584] BVTPM4785R screenshot exist
[11/Mar/2019 02:29:01] INFO [salattax_app.subscribe_payumoney:1739] Error sending mail: invalid literal for int() with base 10: ''
[11/Mar/2019 02:29:01] INFO [salattax_app.subscribe_payumoney:1584] ASGPR9583F screenshot exist
[11/Mar/2019 02:29:01] INFO [salattax_app.subscribe_payumoney:1739] Error sending mail: unsupported locale setting
[11/Mar/2019 02:29:01] INFO [salattax_app.subscribe_payumoney:1584] AMOPK2275R screenshot exist
[11/Mar/2019 02:29:01] INFO [salattax_app.subscribe_payumoney:1739] Error sending mail: unsupported locale setting
[11/Mar/2019 02:29:01] INFO [salattax_app.subscribe_payumoney:1584] BJPPB7295F screenshot exist
[11/Mar/2019 02:29:01] INFO [salattax_app.subscribe_payumoney:1739] Error sending mail: invalid literal for int() with base 10: ''
[11/Mar/2019 02:29:01] INFO [salattax_app.subscribe_payumoney:1584] BUDPB7691G screenshot exist
[11/Mar/2019 02:29:01] INFO [salattax_app.subscribe_payumoney:1739] Error sending mail: invalid literal for int() with base 10: ''
[11/Mar/2019 02:29:01] INFO [salattax_app.subscribe_payumoney:1584] AIGPR5746N screenshot exist
[11/Mar/2019 02:29:01] INFO [salattax_app.subscribe_payumoney:1739] Error sending mail: unsupported locale setting
[11/Mar/2019 02:29:01] INFO [salattax_app.subscribe_payumoney:1584] AFKPA4042H screenshot exist
[11/Mar/2019 02:29:01] INFO [salattax_app.subscribe_payumoney:1739] Error sending mail: unsupported locale setting
[11/Mar/2019 02:29:01] INFO [salattax_app.subscribe_payumoney:1584] AHLPL1070H screenshot exist
[11/Mar/2019 02:29:01] INFO [salattax_app.subscribe_payumoney:1739] Error sending mail: invalid literal for int() with base 10: ''
[11/Mar/2019 02:29:01] INFO [salattax_app.subscribe_payumoney:1584] ANRPB0497J screenshot exist
[11/Mar/2019 02:29:01] INFO [salattax_app.subscribe_payumoney:1739] Error sending mail: int() argument must be a string or a number, not 'NoneType'
[11/Mar/2019 02:29:01] INFO [salattax_app.subscribe_payumoney:1584] DLOPS2352R screenshot exist
[11/Mar/2019 02:29:01] INFO [salattax_app.subscribe_payumoney:1739] Error sending mail: invalid literal for int() with base 10: ''
[11/Mar/2019 02:29:01] INFO [salattax_app.subscribe_payumoney:1584] ABAPW4263E screenshot exist
[11/Mar/2019 02:29:01] INFO [salattax_app.subscribe_payumoney:1739] Error sending mail: invalid literal for int() with base 10: ''
[11/Mar/2019 02:29:01] INFO [salattax_app.subscribe_payumoney:1584] AJRPD4193K screenshot exist
[11/Mar/2019 02:29:01] INFO [salattax_app.subscribe_payumoney:1739] Error sending mail: invalid literal for int() with base 10: ''
[11/Mar/2019 02:29:01] INFO [salattax_app.subscribe_payumoney:1584] ANRPB0497J screenshot exist
[11/Mar/2019 02:29:01] INFO [salattax_app.subscribe_payumoney:1739] Error sending mail: invalid literal for int() with base 10: ''
[11/Mar/2019 02:29:01] INFO [salattax_app.subscribe_payumoney:1584] ABBHS1003B screenshot exist
[11/Mar/2019 02:29:01] INFO [salattax_app.subscribe_payumoney:1739] Error sending mail: invalid literal for int() with base 10: ''
[11/Mar/2019 02:29:02] INFO [salattax_app.subscribe_payumoney:1584] AVPPD7717F screenshot exist
[11/Mar/2019 02:29:02] INFO [salattax_app.subscribe_payumoney:1739] Error sending mail: unsupported locale setting
[11/Mar/2019 02:29:02] INFO [salattax_app.subscribe_payumoney:1584] AKSPM5263B screenshot exist
[11/Mar/2019 02:29:02] INFO [salattax_app.subscribe_payumoney:1739] Error sending mail: unsupported locale setting
[11/Mar/2019 02:29:02] INFO [salattax_app.subscribe_payumoney:1584] APRPG5173L screenshot exist
[11/Mar/2019 02:29:02] INFO [salattax_app.subscribe_payumoney:1739] Error sending mail: unsupported locale setting
[11/Mar/2019 03:30:02] INFO [salattax_app.subscribe_payumoney:1674] Start send_marketing_mail for tax_leakage_report: Mon Mar 11 03:30:02 2019
[11/Mar/2019 03:30:02] INFO [salattax_app.subscribe_payumoney:1584] EGRPK2447C screenshot exist
[11/Mar/2019 03:30:02] INFO [salattax_app.subscribe_payumoney:1739] Error sending mail: unsupported locale setting
[11/Mar/2019 03:30:02] INFO [salattax_app.subscribe_payumoney:1584] ANRPB0497J screenshot exist
[11/Mar/2019 03:30:02] INFO [salattax_app.subscribe_payumoney:1739] Error sending mail: unsupported locale setting
[11/Mar/2019 03:30:02] INFO [salattax_app.subscribe_payumoney:1584] AMOPK2275R screenshot exist
[11/Mar/2019 03:30:02] INFO [salattax_app.subscribe_payumoney:1739] Error sending mail: int() argument must be a string or a number, not 'NoneType'
[11/Mar/2019 03:30:02] INFO [salattax_app.subscribe_payumoney:1584] ACDPL0065F screenshot exist
[11/Mar/2019 03:30:02] INFO [salattax_app.subscribe_payumoney:1739] Error sending mail: invalid literal for int() with base 10: ''
[11/Mar/2019 03:30:02] INFO [salattax_app.subscribe_payumoney:1584] ANRPB0497J screenshot exist
[11/Mar/2019 03:30:02] INFO [salattax_app.subscribe_payumoney:1739] Error sending mail: unsupported locale setting
[11/Mar/2019 03:30:02] INFO [salattax_app.subscribe_payumoney:1584] ACDPL0065F screenshot exist
[11/Mar/2019 03:30:02] INFO [salattax_app.subscribe_payumoney:1739] Error sending mail: unsupported locale setting
[11/Mar/2019 03:30:02] INFO [salattax_app.subscribe_payumoney:1584] AKSPM5263B screenshot exist
[11/Mar/2019 03:30:02] INFO [salattax_app.subscribe_payumoney:1739] Error sending mail: invalid literal for int() with base 10: ''
[11/Mar/2019 03:30:02] INFO [salattax_app.subscribe_payumoney:1584] ANRPB0497J screenshot exist
[11/Mar/2019 03:30:02] INFO [salattax_app.subscribe_payumoney:1739] Error sending mail: invalid literal for int() with base 10: ''
[11/Mar/2019 03:30:02] INFO [salattax_app.subscribe_payumoney:1584] ANRPB0497J screenshot exist
[11/Mar/2019 03:30:02] INFO [salattax_app.subscribe_payumoney:1739] Error sending mail: invalid literal for int() with base 10: ''
[11/Mar/2019 03:30:02] INFO [salattax_app.subscribe_payumoney:1584] ACDPL0065F screenshot exist
[11/Mar/2019 03:30:02] INFO [salattax_app.subscribe_payumoney:1739] Error sending mail: unsupported locale setting
[11/Mar/2019 03:30:02] INFO [salattax_app.subscribe_payumoney:1584] BKPPM8283B screenshot exist
[11/Mar/2019 03:30:02] INFO [salattax_app.subscribe_payumoney:1739] Error sending mail: invalid literal for int() with base 10: ''
[11/Mar/2019 03:30:02] INFO [salattax_app.subscribe_payumoney:1584] BKPPM8283B screenshot exist
[11/Mar/2019 03:30:02] INFO [salattax_app.subscribe_payumoney:1739] Error sending mail: invalid literal for int() with base 10: ''
[11/Mar/2019 03:30:02] INFO [salattax_app.subscribe_payumoney:1584] ANRPB0497J screenshot exist
[11/Mar/2019 03:30:02] INFO [salattax_app.subscribe_payumoney:1739] Error sending mail: unsupported locale setting
[11/Mar/2019 03:30:02] INFO [salattax_app.subscribe_payumoney:1584] ACAPK1080G screenshot exist
[11/Mar/2019 03:30:02] INFO [salattax_app.subscribe_payumoney:1739] Error sending mail: invalid literal for int() with base 10: ''
[11/Mar/2019 03:30:02] INFO [salattax_app.subscribe_payumoney:1584] ACAPK1080G screenshot exist
[11/Mar/2019 03:30:02] INFO [salattax_app.subscribe_payumoney:1739] Error sending mail: invalid literal for int() with base 10: ''
[11/Mar/2019 03:30:02] INFO [salattax_app.subscribe_payumoney:1584] BKPPM8283B screenshot exist
[11/Mar/2019 03:30:02] INFO [salattax_app.subscribe_payumoney:1739] Error sending mail: unsupported locale setting
[11/Mar/2019 03:30:02] INFO [salattax_app.subscribe_payumoney:1584] ANRPB0497J screenshot exist
[11/Mar/2019 03:30:02] INFO [salattax_app.subscribe_payumoney:1739] Error sending mail: invalid literal for int() with base 10: ''
[11/Mar/2019 03:30:02] INFO [salattax_app.subscribe_payumoney:1584] BVTPM4785R screenshot exist
[11/Mar/2019 03:30:02] INFO [salattax_app.subscribe_payumoney:1739] Error sending mail: invalid literal for int() with base 10: ''
[11/Mar/2019 03:30:02] INFO [salattax_app.subscribe_payumoney:1584] ASGPR9583F screenshot exist
[11/Mar/2019 03:30:02] INFO [salattax_app.subscribe_payumoney:1739] Error sending mail: unsupported locale setting
[11/Mar/2019 03:30:02] INFO [salattax_app.subscribe_payumoney:1584] AMOPK2275R screenshot exist
[11/Mar/2019 03:30:02] INFO [salattax_app.subscribe_payumoney:1739] Error sending mail: unsupported locale setting
[11/Mar/2019 03:30:02] INFO [salattax_app.subscribe_payumoney:1584] BJPPB7295F screenshot exist
[11/Mar/2019 03:30:02] INFO [salattax_app.subscribe_payumoney:1739] Error sending mail: invalid literal for int() with base 10: ''
[11/Mar/2019 03:30:02] INFO [salattax_app.subscribe_payumoney:1584] BUDPB7691G screenshot exist
[11/Mar/2019 03:30:02] INFO [salattax_app.subscribe_payumoney:1739] Error sending mail: invalid literal for int() with base 10: ''
[11/Mar/2019 03:30:02] INFO [salattax_app.subscribe_payumoney:1584] AIGPR5746N screenshot exist
[11/Mar/2019 03:30:02] INFO [salattax_app.subscribe_payumoney:1739] Error sending mail: unsupported locale setting
[11/Mar/2019 03:30:02] INFO [salattax_app.subscribe_payumoney:1584] AFKPA4042H screenshot exist
[11/Mar/2019 03:30:02] INFO [salattax_app.subscribe_payumoney:1739] Error sending mail: unsupported locale setting
[11/Mar/2019 03:30:02] INFO [salattax_app.subscribe_payumoney:1584] AHLPL1070H screenshot exist
[11/Mar/2019 03:30:02] INFO [salattax_app.subscribe_payumoney:1739] Error sending mail: invalid literal for int() with base 10: ''
[11/Mar/2019 03:30:02] INFO [salattax_app.subscribe_payumoney:1584] ANRPB0497J screenshot exist
[11/Mar/2019 03:30:02] INFO [salattax_app.subscribe_payumoney:1739] Error sending mail: int() argument must be a string or a number, not 'NoneType'
[11/Mar/2019 03:30:02] INFO [salattax_app.subscribe_payumoney:1584] DLOPS2352R screenshot exist
[11/Mar/2019 03:30:02] INFO [salattax_app.subscribe_payumoney:1739] Error sending mail: invalid literal for int() with base 10: ''
[11/Mar/2019 03:30:02] INFO [salattax_app.subscribe_payumoney:1584] ABAPW4263E screenshot exist
[11/Mar/2019 03:30:02] INFO [salattax_app.subscribe_payumoney:1739] Error sending mail: invalid literal for int() with base 10: ''
[11/Mar/2019 03:30:02] INFO [salattax_app.subscribe_payumoney:1584] AJRPD4193K screenshot exist
[11/Mar/2019 03:30:02] INFO [salattax_app.subscribe_payumoney:1739] Error sending mail: invalid literal for int() with base 10: ''
[11/Mar/2019 03:30:02] INFO [salattax_app.subscribe_payumoney:1584] ANRPB0497J screenshot exist
[11/Mar/2019 03:30:02] INFO [salattax_app.subscribe_payumoney:1739] Error sending mail: invalid literal for int() with base 10: ''
[11/Mar/2019 03:30:02] INFO [salattax_app.subscribe_payumoney:1584] ABBHS1003B screenshot exist
[11/Mar/2019 03:30:02] INFO [salattax_app.subscribe_payumoney:1739] Error sending mail: invalid literal for int() with base 10: ''
[11/Mar/2019 03:30:02] INFO [salattax_app.subscribe_payumoney:1584] AVPPD7717F screenshot exist
[11/Mar/2019 03:30:02] INFO [salattax_app.subscribe_payumoney:1739] Error sending mail: unsupported locale setting
[11/Mar/2019 03:30:02] INFO [salattax_app.subscribe_payumoney:1584] AKSPM5263B screenshot exist
[11/Mar/2019 03:30:02] INFO [salattax_app.subscribe_payumoney:1739] Error sending mail: unsupported locale setting
[11/Mar/2019 03:30:02] INFO [salattax_app.subscribe_payumoney:1584] APRPG5173L screenshot exist
[11/Mar/2019 03:30:02] INFO [salattax_app.subscribe_payumoney:1739] Error sending mail: unsupported locale setting
[11/Mar/2019 04:12:19] INFO [salattax_app.index:700] https://salattax.com/salattax_dashboard/
[11/Mar/2019 10:42:01] INFO [salattax_app.index:700] https://salattax.com/
[11/Mar/2019 15:14:48] INFO [salattax_app.index:700] https://salattax.com/
[12/Mar/2019 03:52:42] INFO [salattax_app.index:700] https://salattax.com/
