id,eri_name,eri_pan,eri_dob,password,user_id,status,user_pan,date_time
8,Kadam,EGRPK2447C,1992-03-01,Salat!2019%,ERIU111554,active,ABBHS1003B,2019-07-02 07:44:24
7,Walzade,ABYPW2630B,1991-07-20,Salat!2019%,ERIU111535,inactive,,2019-07-02 07:55:14
6,Bagmar,AARPB7183J,1958-06-08,Salat!2019%,ERIU111537,inactive,AARPB7183J,2019-06-27 18:27:47
5,Patil,DAVPP6576C,1992-06-23,Salat!2019%,ERIU111556,inactive,AARPB7183J,2019-06-27 18:27:59
4,Tamboli,AYHPT6350R,1995-10-10,Salat!2019%,ERIU111555,inactive,AARPB7183J,2019-06-27 18:28:12
3,Devkar,AVOPD6885F,1989-08-24,Salat!2019%,ERIU111536,inactive,AARPB7183J,2019-06-27 18:28:24
