id,return_complexity,charges
10,Express Return Filing,750
9,Phone Support,100
8,Chat Support,0
7,Email Support,0
6,Expert Review,500
5,Capital Gain - Mutual Funds,300
4,Capital Gain - Shares,300
3,House Property,200
2,Form16,200
1,Basic Return Filing Charge,249
