id,PAN,Is_salat_client,Is_ERI_reg,ERI_id,Reg_date
168,BJMPK4848L,1,1,ERIU111554,2019-03-26 17:38:36
167,BRHPB8482J,1,1,ERIU111554,2019-03-25 13:55:50
166,AHAPR5048L,0,0,,2019-03-25 10:34:29
165,AMKPM0530F,1,1,ERIU111554,2019-03-22 05:53:41
164,AIPPD2980H,0,0,,2019-03-20 06:49:00
163,ANZPT3640H,1,1,ERIU111554,2019-03-16 16:29:10
162,ACCPH0654H,,,,2019-03-13 17:59:10
161,BDHPD7452E,1,1,ERIU111554,2019-03-05 11:16:56
160,AMYPB7785R,1,1,ERIU111554,2019-03-05 06:57:02
159,BBPPG4995K,,,,2019-03-04 05:04:33
158,AYAPB0312L,1,1,ERIU111554,2019-03-02 03:06:10
157,AYAPH0342L,2,2,,2019-03-02 03:03:49
156,APRPG5173L,1,1,ERIU111554,2019-03-01 13:17:47
155,CVSPS0233A,1,1,ERIU111554,2019-03-01 05:43:45
154,ANMPB3088N,1,1,ERIU111535,2019-02-26 12:35:24
153,BHUPS0626Q,0,0,,2019-02-26 12:12:55
152,CNXPS0591L,0,0,,2019-02-23 16:25:42
151,AKSPM5263B,1,1,ERIU111554,2019-02-23 15:03:12
150,AADPB8669B,1,1,ERIU111554,2019-02-23 05:10:57
149,ACSPH9650B,1,1,ERIU111554,2019-02-22 06:37:52
148,AVPPD7717F,1,1,ERIU111554,2019-02-22 06:01:07
147,ASPPB0153J,0,0,,2019-02-22 05:23:58
146,ARXPR7975B,1,1,ERIU111535,2019-02-20 17:57:37
145,ABPPO7679F,1,1,ERIU111554,2019-02-19 13:40:18
144,DDJPS8023Q,1,1,ERIU111535,2019-02-16 16:35:11
143,AWOPR4273Q,1,1,ERIU111554,2019-02-16 09:05:44
142,ABBHS1003B,1,1,ERIU111554,2019-02-07 11:32:39
141,ANRPB0497J,1,1,ERIU111535,2019-02-04 10:36:38
140,ANRPB0947J,2,2,,2019-02-04 10:25:54
139,EGRPK2447C,1,1,ERIU111537,2019-02-04 09:24:14
137,AJRPD4193K,1,1,ERIU111554,2019-01-24 13:55:58
135,BEXPB8439N,0,0,,2019-01-22 18:28:03
134,ABAPW4263E,1,1,ERIU111535,2019-01-16 09:15:42
133,DLOPS2352R,1,1,ERIU111537,2019-01-10 14:43:43
132,AOYPB3210P,1,1,ERIU111554,2019-01-08 16:47:27
131,AHLPL1070H,1,1,ERIU111554,2019-01-07 07:01:19
130,AFKPA4042H,1,1,ERIU111554,2019-01-07 06:04:32
129,CFPPK8650E,0,0,,2019-01-05 16:33:26
128,AKCPC1663R,0,0,,2019-01-05 14:28:53
127,AIGPR5746N,1,1,ERIU111535,2019-01-05 07:39:41
126,AKIPJ4995K,0,0,,2019-01-05 07:29:11
125,BUDPB7691G,1,1,ERIU111554,2019-01-05 06:20:00
124,BJPPB7295F,1,1,ERIU111554,2019-01-05 06:14:22
123,ASGPR9583F,1,1,ERIU111555,2019-01-05 06:04:43
122,AAAAA9999A,2,2,,2019-01-05 05:51:19
121,BCZPA9366B,0,0,,2019-01-05 05:49:11
120,QRZPD9876H,2,2,,2019-01-05 05:47:47
119,BVTPM4785R,1,1,ERIU111535,2019-01-05 05:46:30
118,AKBPB3739Q,,,,2019-01-05 03:52:54
117,APXPA2299B,1,1,ERIU111554,2019-01-04 13:09:30
116,ACDPL0065F,0,0,ERIU111556,2019-01-04 10:46:42
113,ANRPB0597J,2,2,,2019-01-03 11:33:27
112,BKPPM8283B,1,1,ERIU111554,2019-01-03 07:28:49
103,AVEPK5380N,1,1,,2018-12-20 17:33:08
101,ACAPK1080G,1,1,,2018-12-18 06:09:27
99,BSHPK5958D,1,1,,2018-12-17 15:34:51
70,BKPPM8283M,,,,2018-12-13 07:27:37
66,ECHPK4048H,2,2,,2018-12-07 08:55:52
60,CLHPB5758A,1,1,ERIU111554,2018-12-04 11:27:25
59,BPVPR1699H,1,1,,2018-11-30 12:22:34
58,BAIPP3923Q,1,1,,2018-11-26 04:59:07
57,GLCPS4699C,1,1,,2018-11-24 09:31:40
56,AARPB7183J,1,1,ERIU111554,2018-11-06 17:10:30
55,VBCGF7465B,2,2,,2018-11-05 10:34:29
54,TDGDF4545D,2,2,,2018-11-05 10:27:33
51,AARPB7024Q,1,1,,2018-11-04 16:48:05
47,AQKPA3663K,1,1,,2018-10-27 14:01:47
46,BJTPS6809Q,1,1,ERIU111554,2018-10-27 13:53:35
44,AARPD2854J,1,1,,2018-10-27 05:20:28
42,AYHPT6350R,,,,2018-10-26 12:51:09
25,AIWPM6457F,1,1,,2018-08-25 06:59:14
24,BHOPK5940H,1,1,,2018-08-21 13:13:59
23,AZMPD4120D,1,1,,2018-08-21 12:19:53
20,ANQPP3219H,1,1,,2018-08-20 10:47:58
19,ACRPK9299G,1,1,,2018-08-19 17:42:09
18,AKYPB8909M,1,1,ERIU111554,2018-08-18 05:19:32
17,AEQPH5732N,,1,,2018-08-18 04:45:08
16,DONPS3636L,1,1,,2018-08-14 07:55:31
15,AMOPK2275R,1,1,ERIU111554,2018-08-13 12:17:24
14,BFCPR7597K,0,0,,2018-07-26 05:44:00
13,AOEPV7343H,1,1,,2018-07-25 12:55:04
12,AYIPA8530D,1,1,,2018-07-24 17:54:24
