^Form 26AS^

File Creation Date^Permanent Account Number (PAN)^Current Status of PAN^Financial Year^Assessment Year^Name of Assessee^Address Line 1^Address Line 2^Address Line 3^Address Line 4^Address Line 5^Statecode^Pin Code
26-07-2019^ANRPB0497J^ACTIVE^2017-2018^2018-2019^SWAPNIL SATISH BAGMAR^27^MATRUCHHAYA SOCIETY^NAGAR ROAD^^PUNE^MAHARASHTRA^411006

^PART A - Details of Tax Deducted at Source^
Sr. No.^Name of Deductor^TAN of Deductor^^^^^Total Amount Paid / Credited(Rs.)^Total Tax Deducted(Rs.)^Total TDS Deposited(Rs.)
1^CHORDIA ASHOK DHANRAJ^PNEA15885C^^^^^39000.00^1949.00^1949.00^
^Sr. No.^Section^Transaction Date^Status of Booking^Date of Booking^Remarks^Amount Paid / Credited(Rs.)^Tax Deducted(Rs.)^TDS Deposited(Rs.)
^1^194H^07-Jul-2017^F^10-Nov-2017^-^3748.00^187.00^187.00^
^2^194H^07-Jul-2017^F^10-Nov-2017^-^0.00^0.00^0.00^
^3^194H^07-Jul-2017^F^10-Nov-2017^B^-3748.00^-187.00^-187.00^
^4^194H^07-Jul-2017^F^10-Nov-2017^-^3750.00^187.00^187.00^
^5^194H^12-Jun-2017^F^16-Jul-2018^-^19500.00^975.00^975.00^
^6^194H^23-May-2017^F^16-Jul-2018^-^15750.00^787.00^787.00^
^7^194H^23-May-2017^F^16-Jul-2018^-^15750.00^787.00^787.00^
^8^194H^23-May-2017^F^16-Jul-2018^B^-15750.00^-787.00^-787.00^

2^LUNKAD REALTY^PNEL04169E^^^^^1195592.00^85705.00^85705.00^
^Sr. No.^Section^Transaction Date^Status of Booking^Date of Booking^Remarks^Amount Paid / Credited(Rs.)^Tax Deducted(Rs.)^TDS Deposited(Rs.)
^1^194H^25-Mar-2018^F^18-May-2018^-^5600.00^280.00^280.00^
^2^194H^25-Mar-2018^F^18-May-2018^-^6600.00^330.00^330.00^
^3^194H^25-Mar-2018^F^18-May-2018^-^12000.00^600.00^600.00^
^4^194H^20-Mar-2018^F^18-May-2018^-^6000.00^300.00^300.00^
^5^194A^16-Mar-2018^F^18-May-2018^-^5396.00^540.00^540.00^
^6^194H^16-Mar-2018^F^18-May-2018^-^12950.00^648.00^648.00^
^7^194A^15-Mar-2018^F^18-May-2018^-^3750.00^375.00^375.00^
^8^194H^15-Mar-2018^F^18-May-2018^-^8400.00^420.00^420.00^
^9^194H^10-Mar-2018^F^18-May-2018^-^1600.00^80.00^80.00^
^10^194H^10-Mar-2018^F^18-May-2018^-^3900.00^195.00^195.00^
^11^194H^10-Mar-2018^F^18-May-2018^-^4000.00^200.00^200.00^
^12^194H^28-Feb-2018^F^18-May-2018^-^9000.00^450.00^450.00^
^13^194H^28-Feb-2018^F^18-May-2018^-^6000.00^300.00^300.00^
^14^194H^23-Feb-2018^F^18-May-2018^-^7000.00^350.00^350.00^
^15^194H^23-Feb-2018^F^18-May-2018^-^8000.00^400.00^400.00^
^16^194H^12-Feb-2018^F^18-May-2018^-^3300.00^165.00^165.00^
^17^194H^01-Feb-2018^F^18-May-2018^-^4800.00^240.00^240.00^
^18^194H^28-Jan-2018^F^18-May-2018^-^4000.00^200.00^200.00^
^19^194H^28-Jan-2018^F^18-May-2018^-^3000.00^150.00^150.00^
^20^194H^27-Jan-2018^F^18-May-2018^-^4000.00^200.00^200.00^
^21^194H^27-Jan-2018^F^18-May-2018^-^3000.00^150.00^150.00^
^22^194A^26-Jan-2018^F^18-May-2018^-^20708.00^2071.00^2071.00^
^23^194H^26-Jan-2018^F^18-May-2018^-^9800.00^490.00^490.00^
^24^194H^20-Jan-2018^F^18-May-2018^-^12800.00^640.00^640.00^
^25^194H^14-Jan-2018^F^18-May-2018^-^3000.00^150.00^150.00^
^26^194H^09-Jan-2018^F^18-May-2018^-^6000.00^300.00^300.00^
^27^194H^09-Jan-2018^F^18-May-2018^-^9000.00^450.00^450.00^
^28^194H^09-Jan-2018^F^18-May-2018^-^4000.00^200.00^200.00^
^29^194H^28-Dec-2017^F^03-Feb-2018^-^8000.00^400.00^400.00^
^30^194H^27-Dec-2017^F^03-Feb-2018^-^2400.00^120.00^120.00^
^31^194H^16-Dec-2017^F^03-Feb-2018^-^5000.00^250.00^250.00^
^32^194H^14-Dec-2017^F^03-Feb-2018^-^8000.00^400.00^400.00^
^33^194H^11-Dec-2017^F^03-Feb-2018^-^8000.00^400.00^400.00^
^34^194A^09-Dec-2017^F^03-Feb-2018^-^57500.00^5750.00^5750.00^
^35^194H^09-Dec-2017^F^03-Feb-2018^-^6000.00^300.00^300.00^
^36^194H^09-Dec-2017^F^03-Feb-2018^-^4800.00^240.00^240.00^
^37^194H^09-Dec-2017^F^03-Feb-2018^-^16100.00^805.00^805.00^
^38^194H^02-Dec-2017^F^03-Feb-2018^-^5600.00^280.00^280.00^
^39^194H^01-Dec-2017^F^03-Feb-2018^-^4200.00^210.00^210.00^
^40^194H^23-Nov-2017^F^03-Feb-2018^-^6600.00^330.00^330.00^
^41^194H^20-Nov-2017^F^03-Feb-2018^-^6000.00^300.00^300.00^
^42^194H^19-Nov-2017^F^03-Feb-2018^-^12000.00^600.00^600.00^
^43^194A^17-Nov-2017^F^03-Feb-2018^-^53650.00^5365.00^5365.00^
^44^194H^17-Nov-2017^F^03-Feb-2018^-^5550.00^278.00^278.00^
^45^194H^17-Nov-2017^F^03-Feb-2018^-^4000.00^200.00^200.00^
^46^194A^15-Nov-2017^F^03-Feb-2018^-^34800.00^3480.00^3480.00^
^47^194H^15-Nov-2017^F^03-Feb-2018^-^3900.00^195.00^195.00^
^48^194H^15-Nov-2017^F^03-Feb-2018^-^3600.00^180.00^180.00^
^49^194H^31-Oct-2017^F^03-Feb-2018^-^1600.00^80.00^80.00^
^50^194H^31-Oct-2017^F^03-Feb-2018^-^6000.00^300.00^300.00^
^51^194H^31-Oct-2017^F^03-Feb-2018^-^9000.00^450.00^450.00^
^52^194H^27-Oct-2017^F^03-Feb-2018^-^8000.00^400.00^400.00^
^53^194H^07-Oct-2017^F^03-Feb-2018^-^3300.00^165.00^165.00^
^54^194H^06-Oct-2017^F^03-Feb-2018^-^300.00^15.00^15.00^
^55^194H^04-Oct-2017^F^03-Feb-2018^-^4000.00^200.00^200.00^
^56^194H^01-Oct-2017^F^03-Feb-2018^-^4800.00^240.00^240.00^
^57^194H^28-Sep-2017^F^04-Nov-2017^-^4000.00^200.00^200.00^
^58^194H^28-Sep-2017^F^04-Nov-2017^-^3000.00^150.00^150.00^
^59^194H^28-Sep-2017^F^04-Nov-2017^-^4000.00^200.00^200.00^
^60^194H^25-Sep-2017^F^04-Nov-2017^-^12800.00^640.00^640.00^
^61^194H^25-Sep-2017^F^04-Nov-2017^-^4000.00^200.00^200.00^
^62^194A^19-Sep-2017^F^04-Nov-2017^-^35000.00^3500.00^3500.00^
^63^194H^19-Sep-2017^F^04-Nov-2017^-^9800.00^490.00^490.00^
^64^194H^09-Sep-2017^F^04-Nov-2017^-^9000.00^450.00^450.00^
^65^194H^07-Sep-2017^F^04-Nov-2017^-^6000.00^300.00^300.00^
^66^194H^07-Sep-2017^F^04-Nov-2017^-^4000.00^200.00^200.00^
^67^194H^31-Aug-2017^F^04-Nov-2017^-^3150.00^158.00^158.00^
^68^194H^24-Aug-2017^F^04-Nov-2017^-^4500.00^225.00^225.00^
^69^194H^22-Aug-2017^F^04-Nov-2017^-^10000.00^500.00^500.00^
^70^194H^16-Aug-2017^F^04-Nov-2017^-^5000.00^250.00^250.00^
^71^194H^16-Aug-2017^F^04-Nov-2017^-^3000.00^150.00^150.00^
^72^194H^13-Aug-2017^F^04-Nov-2017^-^8000.00^400.00^400.00^
^73^194A^11-Aug-2017^F^04-Nov-2017^-^57500.00^5750.00^5750.00^
^74^194H^11-Aug-2017^F^04-Nov-2017^-^6000.00^300.00^300.00^
^75^194H^11-Aug-2017^F^04-Nov-2017^-^6000.00^300.00^300.00^
^76^194H^11-Aug-2017^F^04-Nov-2017^-^16100.00^805.00^805.00^
^77^194H^06-Aug-2017^F^04-Nov-2017^-^4500.00^225.00^225.00^
^78^194H^06-Aug-2017^F^04-Nov-2017^-^6750.00^338.00^338.00^
^79^194H^03-Aug-2017^F^04-Nov-2017^-^8000.00^400.00^400.00^
^80^194H^23-Jul-2017^F^04-Nov-2017^-^6600.00^330.00^330.00^
^81^194A^17-Jul-2017^F^04-Nov-2017^-^46250.00^4625.00^4625.00^
^82^194H^17-Jul-2017^F^04-Nov-2017^-^12950.00^648.00^648.00^
^83^194H^17-Jul-2017^F^04-Nov-2017^-^4000.00^200.00^200.00^
^84^194A^16-Jul-2017^F^04-Nov-2017^-^30000.00^3000.00^3000.00^
^85^194H^16-Jul-2017^F^04-Nov-2017^-^8400.00^420.00^420.00^
^86^194H^14-Jul-2017^F^04-Nov-2017^-^21000.00^1050.00^1050.00^
^87^194H^13-Jul-2017^F^04-Nov-2017^-^4000.00^200.00^200.00^
^88^194H^13-Jul-2017^F^04-Nov-2017^-^5200.00^260.00^260.00^
^89^194H^03-Jul-2017^F^04-Nov-2017^-^1600.00^80.00^80.00^
^90^194H^08-Jun-2017^F^30-Jul-2017^-^3300.00^165.00^165.00^
^91^194H^08-Jun-2017^F^30-Jul-2017^-^450.00^22.00^22.00^
^92^194H^29-May-2017^F^30-Jul-2017^-^6000.00^300.00^300.00^
^93^194H^28-May-2017^F^30-Jul-2017^-^5000.00^250.00^250.00^
^94^194H^28-May-2017^F^30-Jul-2017^-^3000.00^150.00^150.00^
^95^194H^27-May-2017^F^30-Jul-2017^-^2550.00^128.00^128.00^
^96^194H^27-May-2017^F^30-Jul-2017^-^3000.00^150.00^150.00^
^97^194A^24-May-2017^F^30-Jul-2017^-^35000.00^3500.00^3500.00^
^98^194H^24-May-2017^F^30-Jul-2017^-^5000.00^250.00^250.00^
^99^194H^24-May-2017^F^30-Jul-2017^-^14000.00^700.00^700.00^
^100^194H^24-May-2017^F^30-Jul-2017^-^5000.00^250.00^250.00^
^101^194H^20-May-2017^F^30-Jul-2017^-^5000.00^250.00^250.00^
^102^194H^17-May-2017^F^30-Jul-2017^-^3750.00^188.00^188.00^
^103^194H^15-May-2017^F^30-Jul-2017^-^9000.00^450.00^450.00^
^104^194H^05-May-2017^F^30-Jul-2017^-^6000.00^300.00^300.00^
^105^194H^02-May-2017^F^30-Jul-2017^-^1400.00^70.00^70.00^
^106^194H^22-Apr-2017^F^30-Jul-2017^-^8000.00^400.00^400.00^
^107^194H^22-Apr-2017^F^30-Jul-2017^-^10000.00^500.00^500.00^
^108^194A^17-Apr-2017^F^30-Jul-2017^-^57500.00^5750.00^5750.00^
^109^194H^17-Apr-2017^F^30-Jul-2017^-^23000.00^1150.00^1150.00^
^110^194H^14-Apr-2017^F^30-Jul-2017^-^10000.00^500.00^500.00^
^111^194H^06-Apr-2017^F^30-Jul-2017^-^5000.00^250.00^250.00^
^112^194H^06-Apr-2017^F^30-Jul-2017^-^6000.00^300.00^300.00^
^113^194H^03-Apr-2017^F^30-Jul-2017^-^10000.00^500.00^500.00^
^114^194A^01-Apr-2017^F^30-Jul-2017^-^40854.00^4085.00^4085.00^
^115^194H^01-Apr-2017^F^30-Jul-2017^-^16342.00^817.00^817.00^
^116^194H^01-Apr-2017^F^30-Jul-2017^-^10500.00^525.00^525.00^
^117^194A^01-Apr-2017^F^30-Jul-2017^-^14292.00^1429.00^1429.00^
^118^194A^01-Apr-2017^F^30-Jul-2017^-^26250.00^2625.00^2625.00^

3^SHANKARRAO MOHITE PATIL SAHAKARI BANK LTD^PNES13789G^^^^^10374.00^1037.00^1037.00^
^Sr. No.^Section^Transaction Date^Status of Booking^Date of Booking^Remarks^Amount Paid / Credited(Rs.)^Tax Deducted(Rs.)^TDS Deposited(Rs.)
^1^194A^31-Mar-2018^F^23-Apr-2018^-^10374.00^1037.00^1037.00^


^PART A1 - Details of Tax Deducted at Source for 15G / 15H^
Sr. No.^Name of Deductor^TAN of Deductor^^^^Total Amount Paid / Credited(Rs.)^Total Tax Deducted(Rs.)^Total TDS Deposited(Rs.)
^^^*********** No Transactions Present **********^


^PART A2 - Details of Tax Deducted at Source on Sale of Immovable Property u/s 194IA/ TDS on Rent of Property u/s 194IB (For Seller/Landlord of Property)^
Sr. No.^Acknowledgement Number^Name of Deductor^PAN of Deductor^Transaction Date^Total Transaction Amount(Rs.)^Total TDS Deposited(Rs.)
^^^*********** No Transactions Present **********^


^PART B - Details of Tax Collected at Source^
Sr. No.^Name of Collector^TAN of Collector^^^^^Total Amount Paid / Debited(Rs.)^Total Tax Collected(Rs.)^Total TCS Deposited(Rs.)
^^^*********** No Transactions Present **********^


^PART C - Details of Tax Paid (other than TDS or TCS)^
Sr. No.^Major Head^Minor Head^Tax(Rs.)^Surcharge(Rs.)^Education Cess(Rs.)^Others(Rs.)^Total Tax(Rs.)^BSR Code^Date of  Deposit^Challan Serial Number^Remarks
1^0021^300^10.00^0.00^0.00^0.00^10.00^6390340^26-Jun-2018^02977^-


^PART D - Details of Paid Refund^
Sr. No.^Assessment Year^Mode^Refund Issued^Nature of Refund^Amount of Refund(Rs.)^Interest(Rs.)^Date of Payment^Remarks
^^^*********** No Transactions Present **********^


^PART E - Details of AIR Transaction^
Sr. No.^Type of Transaction^Name of AIR Filer^Transaction Date^Single / Joint Party Transaction^Number of Parties^Amount(Rs.)^Mode^Remarks
^^^*********** No Transactions Present **********^


^PART F - Details of Tax Deducted at Source on Sale of Immovable Property u/s 194IA/ TDS on Rent of Property u/s 194IB (For Buyer/Tenant of Property)^
Sr. No.^Acknowledgement Number^Name of Deductee^PAN of Deductee^Transaction Date^Total Transaction Amount(Rs.)^Total TDS Deposited(Rs.)^Total Amount Deposited other than TDS(Rs.)
^^^*********** No Transactions Present **********^


^PART G - TDS Defaults (Processing of Statements)^
Sr. No.^Financial Year^Short Payment^Short Deduction^Interest on  TDS Payments Default^Interest on TDS Deduction Default^Late Filing Fee u/s 234E^Interest u/s 220(2)^Total Default
^^^*********** No Transactions Present **********^


