1532324701403	geckodriver	INFO	Listening on 127.0.0.1:42295
1532324909054	geckodriver	INFO	Listening on 127.0.0.1:50381
error: Found argument '-e' which wasn't expected, or isn't valid in this context

USAGE:
    geckodriver -v

For more information try --help
1532325035750	geckodriver	INFO	Listening on 127.0.0.1:42201
1532325088714	geckodriver	INFO	Listening on 127.0.0.1:35845
1532325404961	geckodriver	INFO	Listening on 127.0.0.1:50489
1532325406029	geckodriver::marionette	INFO	Starting browser /usr/lib/firefox/firefox.sh with args ["-marionette"]
Error: no DISPLAY environment variable specified
1532325447524	geckodriver	INFO	Listening on 127.0.0.1:35153
1532325448592	geckodriver::marionette	INFO	Starting browser /usr/lib/firefox/firefox.sh with args ["-marionette"]
Error: no DISPLAY environment variable specified
1532326125507	geckodriver	INFO	Listening on 127.0.0.1:58946
1532326126575	geckodriver::marionette	INFO	Starting browser /usr/lib/firefox/firefox.sh with args ["-marionette"]
*** You are running in headless mode.
1532326128076	Marionette	INFO	Listening on port 41410
1532326128100	Marionette	WARN	TLS certificate errors will be ignored for this session
1532326182915	geckodriver	INFO	Listening on 127.0.0.1:42180
1532326183981	geckodriver::marionette	INFO	Starting browser /usr/lib/firefox/firefox.sh with args ["-marionette"]
*** You are running in headless mode.
1532326185416	Marionette	INFO	Listening on port 45959
1532326185492	Marionette	WARN	TLS certificate errors will be ignored for this session
1532326276917	geckodriver	INFO	Listening on 127.0.0.1:37325
1532326277983	geckodriver::marionette	INFO	Starting browser /usr/lib/firefox/firefox.sh with args ["-marionette"]
*** You are running in headless mode.
1532326279333	Marionette	INFO	Listening on port 38592
1532326279422	Marionette	WARN	TLS certificate errors will be ignored for this session
1532326515424	geckodriver	INFO	Listening on 127.0.0.1:53116
1532326516489	geckodriver::marionette	INFO	Starting browser /usr/lib/firefox/firefox.sh with args ["-marionette"]
*** You are running in headless mode.
1532326517978	Marionette	INFO	Listening on port 34186
1532326518030	Marionette	WARN	TLS certificate errors will be ignored for this session
1532326574655	geckodriver	INFO	Listening on 127.0.0.1:40610
1532326575723	geckodriver::marionette	INFO	Starting browser /usr/lib/firefox/firefox.sh with args ["-marionette"]
*** You are running in headless mode.
1532326577167	Marionette	INFO	Listening on port 34997
1532326577239	Marionette	WARN	TLS certificate errors will be ignored for this session
1532326719890	geckodriver	INFO	Listening on 127.0.0.1:36657
1532326720955	geckodriver::marionette	INFO	Starting browser /usr/lib/firefox/firefox.sh with args ["-marionette"]
*** You are running in headless mode.
1532326722405	Marionette	INFO	Listening on port 45515
1532326722470	Marionette	WARN	TLS certificate errors will be ignored for this session
1532326827843	geckodriver	INFO	Listening on 127.0.0.1:43140
1532326828910	geckodriver::marionette	INFO	Starting browser /usr/lib/firefox/firefox.sh with args ["-marionette"]
*** You are running in headless mode.
1532326830374	Marionette	INFO	Listening on port 44738
1532326830438	Marionette	WARN	TLS certificate errors will be ignored for this session
1532326901984	geckodriver	INFO	Listening on 127.0.0.1:59047
1532326903048	geckodriver::marionette	INFO	Starting browser /usr/lib/firefox/firefox.sh with args ["-marionette"]
*** You are running in headless mode.
1532326904489	Marionette	INFO	Listening on port 45098
1532326904560	Marionette	WARN	TLS certificate errors will be ignored for this session
1532326998748	geckodriver	INFO	Listening on 127.0.0.1:38016
1532326999815	geckodriver::marionette	INFO	Starting browser /usr/lib/firefox/firefox.sh with args ["-marionette"]
*** You are running in headless mode.
1532327001262	Marionette	INFO	Listening on port 45007
1532327001342	Marionette	WARN	TLS certificate errors will be ignored for this session
1532327195282	geckodriver	INFO	Listening on 127.0.0.1:41251
1532327196347	geckodriver::marionette	INFO	Starting browser /usr/lib/firefox/firefox.sh with args ["-marionette"]
*** You are running in headless mode.
1532327197788	Marionette	INFO	Listening on port 34541
1532327197866	Marionette	WARN	TLS certificate errors will be ignored for this session
1532327286896	geckodriver	INFO	Listening on 127.0.0.1:41360
1532327287965	geckodriver::marionette	INFO	Starting browser /usr/lib/firefox/firefox.sh with args ["-marionette"]
*** You are running in headless mode.
1532327289403	Marionette	INFO	Listening on port 43474
1532327289478	Marionette	WARN	TLS certificate errors will be ignored for this session
1532327398420	geckodriver	INFO	Listening on 127.0.0.1:44447
1532327399485	geckodriver::marionette	INFO	Starting browser /usr/lib/firefox/firefox.sh with args ["-marionette"]
*** You are running in headless mode.
1532327400956	Marionette	INFO	Listening on port 41742
1532327401025	Marionette	WARN	TLS certificate errors will be ignored for this session
1532327466856	geckodriver	INFO	Listening on 127.0.0.1:53302
1532327467923	geckodriver::marionette	INFO	Starting browser /usr/lib/firefox/firefox.sh with args ["-marionette"]
*** You are running in headless mode.
1532327469376	Marionette	INFO	Listening on port 37495
1532327469444	Marionette	WARN	TLS certificate errors will be ignored for this session
1532327744237	geckodriver	INFO	Listening on 127.0.0.1:38746
1532327745301	geckodriver::marionette	INFO	Starting browser /usr/lib/firefox/firefox.sh with args ["-marionette"]
*** You are running in headless mode.
1532327746766	Marionette	INFO	Listening on port 35825
1532327746842	Marionette	WARN	TLS certificate errors will be ignored for this session
